<?xml version="1.0" encoding="UTF-8" standalone="no"?>
<!-- Created with Inkscape (http://www.inkscape.org/) -->

<svg
   version="1.1"
   id="svg1"
   width="912"
   height="1226.6667"
   viewBox="0 0 912 1226.6667"
   sodipodi:docname="Arousaland_little_princess_standing.svg"
   inkscape:version="1.3 (0e150ed, 2023-07-21)"
   xmlns:inkscape="http://www.inkscape.org/namespaces/inkscape"
   xmlns:sodipodi="http://sodipodi.sourceforge.net/DTD/sodipodi-0.dtd"
   xmlns="http://www.w3.org/2000/svg"
   xmlns:svg="http://www.w3.org/2000/svg">
  <defs
     id="defs1" />
  <sodipodi:namedview
     id="namedview1"
     pagecolor="#ffffff"
     bordercolor="#666666"
     borderopacity="1.0"
     inkscape:showpageshadow="2"
     inkscape:pageopacity="0.0"
     inkscape:pagecheckerboard="0"
     inkscape:deskcolor="#d1d1d1"
     inkscape:zoom="0.40189842"
     inkscape:cx="602.14221"
     inkscape:cy="687.98479"
     inkscape:window-width="1264"
     inkscape:window-height="787"
     inkscape:window-x="0"
     inkscape:window-y="25"
     inkscape:window-maximized="0"
     inkscape:current-layer="g1" />
  <g
     inkscape:groupmode="layer"
     inkscape:label="Image"
     id="g1">
    <path
       style="fill:#f5d3d6"
       d="m 336.8125,557.53906 c -1.69351,0.66626 -3.18569,1.77463 -4.75322,2.69457 -10.11911,6.33009 -19.97749,13.06579 -30.12858,19.34651 -19.15775,11.9924 -38.97068,23.10229 -59.28828,33.08412 -11.0631,5.47121 -22.34878,10.61346 -33.68433,15.63215 -13.46916,6.0205 -26.90365,12.15877 -39.90529,19.1436 -7.45787,4.07615 -14.87705,8.37527 -21.36942,13.90386 -4.84235,4.09057 -8.94537,9.25314 -10.97882,15.31728 -1.2952,3.89052 -1.86942,8.27349 -0.40372,12.20033 1.55589,3.67166 4.47348,6.60192 7.64447,8.93344 2.54284,1.86351 5.53538,3.11932 8.68266,3.4427 5.96736,0.66223 11.96868,-0.25081 17.84153,-1.27717 11.52733,-2.15778 22.81675,-5.39306 34.05461,-8.70943 18.59382,-5.55802 37.05588,-11.56444 55.33497,-18.08615 7.44094,-2.63571 14.78155,-5.54086 22.07938,-8.54782 0.83985,-0.38466 1.79119,-0.64071 2.56123,-1.10572 7.28069,-12.47937 14.68093,-24.89013 21.65409,-37.54557 9.37051,-16.98041 18.49689,-34.10378 27.01481,-51.53014 2.05237,-4.34125 4.22404,-8.64741 5.81593,-13.18548 0.36056,-0.97685 0.37068,-2.02357 0.47056,-3.04702 -0.69853,-0.24747 -1.38509,-0.66133 -2.09102,-0.80527 -0.18385,0.0471 -0.36771,0.0941 -0.55156,0.14121 z"
       id="path14" />
    <path
       style="fill:#f5d3d6"
       d="m 625.33398,554.53125 c -0.6613,0.0396 -1.13914,0.3245 -1.34375,0.97461 -0.68166,1.28374 -0.11272,2.78268 0.0903,4.12703 1.7015,7.57097 3.9454,15.00678 6.15505,22.44139 3.95124,13.15407 8.35568,26.17223 13.27806,38.99503 4.46951,11.67517 9.12792,23.28811 14.37864,34.63683 1.43427,2.94371 2.75511,5.98236 4.67806,8.64933 1.75623,2.0001 4.34681,2.9553 6.74797,3.94127 7.0258,2.59744 14.33287,4.31976 21.59718,6.10023 20.22555,4.81103 40.63705,8.72254 60.93068,13.16778 10.43311,2.26502 20.874,4.57673 31.26028,7.11388 7.64543,1.71832 15.44132,3.15364 23.30798,3.00355 4.86529,-0.14533 10.00226,-0.94672 13.9927,-3.93756 3.28872,-2.40425 5.12187,-6.37482 5.473,-10.37039 0.55455,-4.88243 -0.69965,-9.86008 -3.19709,-14.06255 -3.46977,-5.90191 -8.50244,-10.67405 -13.60878,-15.15025 -11.51834,-9.98009 -25.17964,-17.06258 -39.05201,-23.16582 -8.88994,-3.88621 -17.93757,-7.39938 -26.81054,-11.32712 -13.28227,-5.79188 -26.32939,-11.9785 -39.17398,-18.71015 -10.83945,-5.66778 -21.61816,-11.77796 -32.09,-18.11522 -9.60234,-5.78169 -18.9998,-11.89248 -28.38287,-18.02063 -5.21482,-3.31784 -10.3934,-6.71088 -15.81678,-9.68187 -0.73841,-0.33376 -1.5827,-0.86632 -2.41407,-0.60937 z"
       id="path13" />
    <path
       style="fill:#f5d3d6"
       d="m 503.81836,404.86328 c 3.19543,0.53636 6.18739,2.65135 7.56517,5.61519 0.749,1.55576 0.75315,3.59551 -0.53593,4.8767 -2.64771,2.99284 -6.03258,5.20988 -9.36813,7.3589 -5.86702,3.61666 -12.07019,6.76819 -18.63898,8.89592 -3.77557,1.16771 -7.67055,1.90666 -11.58072,2.45056 -1.39145,0.19568 -3.01939,0.37406 -4.50782,0.51562 -6.44171,0.57887 -12.94238,0.66887 -19.38281,0.0234 -0.64908,-0.0675 -1.62158,-0.183 -2.39109,-0.29219 -6.4349,-0.88169 -12.58113,-3.17215 -18.4938,-5.78386 -3.90011,-1.81622 -7.83412,-3.72216 -11.17566,-6.47083 -1.89256,-1.42728 -2.41097,-4.06722 -1.7475,-6.2564 0.88737,-3.13279 3.40321,-6.01958 6.69086,-6.6518 2.02569,-0.37534 3.80207,0.89425 5.62487,1.54142 6.50001,2.63083 12.86178,5.71231 19.69329,7.41606 8.29286,2.20729 17.11004,2.44033 25.48653,0.54252 9.81599,-2.16735 18.88485,-6.75869 27.46338,-11.87665 1.64099,-0.86211 3.36997,-2.01442 5.29834,-1.9046 z"
       id="path12" />
    <path
       style="fill:#f5d3d6"
       d="m 303.62891,347.41211 c 2.47708,0.18891 4.79327,1.83107 5.65115,4.18574 0.78001,1.70583 0.96137,3.69315 0.26276,5.45856 -0.56797,1.82205 -1.80965,3.41568 -3.52188,4.29072 -2.8977,1.66715 -6.86023,0.82706 -8.91374,-1.78498 -2.15575,-2.62658 -2.50684,-6.87991 -0.15408,-9.50356 1.64316,-1.86916 4.20193,-2.86458 6.67579,-2.64648 z"
       id="path11" />
    <path
       style="fill:#f5d3d6"
       d="m 628.00977,343.65625 c 2.98118,0.19204 5.69903,2.38333 6.42773,5.29492 1.03484,3.6881 -1.02299,8.01593 -4.67688,9.31861 -1.19993,0.50803 -2.56079,1.32856 -3.86414,0.65405 -1.79787,-0.76819 -3.72768,-1.6126 -4.76229,-3.37757 -1.8357,-2.82223 -1.91849,-6.9685 0.54925,-9.45605 1.58151,-1.74291 3.99014,-2.63706 6.32633,-2.43396 z"
       id="path10" />
    <path
       style="fill:#f5d3d6"
       d="m 347.96484,256.69727 c -1.50448,0.34578 -2.47827,1.70243 -3.52661,2.73533 -4.31269,4.62055 -7.83988,9.89577 -12.08164,14.57818 -7.88438,8.89336 -16.45816,17.17834 -25.59606,24.77719 -4.1039,3.39809 -8.38029,6.60163 -12.9718,9.31618 -8.67679,5.27007 -17.74405,10.10937 -26.89313,14.62503 -4.77699,2.39833 -9.55446,4.79572 -14.33115,7.19465 -1.39571,4.09472 -2.45978,8.31573 -4.23791,12.27016 -2.78938,6.25782 -7.52953,11.66024 -13.52307,15.01867 -3.91428,2.2816 -8.28696,3.5939 -12.67437,4.61599 -1.92324,0.48617 -3.84659,0.97188 -5.76972,1.45846 -1.12429,4.54695 -2.44575,9.04797 -3.40411,13.63391 -1.50316,7.74434 -2.38254,15.60167 -2.79126,23.47748 -0.23233,3.64516 -0.46651,7.29021 -0.69721,10.93548 7.94465,0.03 15.8905,-0.0651 23.83433,0.0577 5.16157,0.12175 10.31963,0.49696 15.4352,1.2021 0.55592,0.0881 1.45068,0.21856 2.13653,0.3229 10.619,1.69049 21.16333,5.10771 29.98829,11.39239 5.45102,3.84505 10.15419,8.71012 14.03464,14.12346 3.01167,4.23797 4.91165,9.21232 5.63408,14.35289 0.39227,2.55868 0.57836,5.23696 0.65664,7.7277 0.11531,4.35927 0.0791,8.73201 -0.35057,13.0748 -0.0838,0.73045 -0.19668,1.7524 -0.33266,2.59398 -0.96109,6.8585 -3.76808,13.29685 -7.17474,19.27213 -2.31532,4.16749 -4.96557,8.15152 -7.08245,12.42686 -0.29,0.60639 -0.38564,1.27279 -0.0784,1.89113 0.73186,1.39787 2.33161,2.01533 3.61573,2.80943 6.85297,3.6324 13.96479,6.7471 21.05794,9.87465 10.18834,4.41575 20.43971,8.71411 30.9042,12.43852 35.82345,12.33723 73.28717,20.57753 111.23632,21.8546 22.92246,0.87521 45.95891,-0.31988 68.58211,-4.20064 20.36256,-3.47139 40.35361,-8.97697 59.7759,-15.98214 14.98472,-5.47581 29.69041,-11.74557 43.91215,-18.98022 6.45477,-3.28332 12.7585,-6.86655 18.80968,-10.8488 1.97603,-1.26231 3.95173,-2.52515 5.92856,-3.78622 -3.65332,-4.04352 -7.50009,-7.91973 -10.94391,-12.14747 -2.87499,-3.53367 -5.20319,-7.61362 -6.09523,-12.12123 -0.31665,-1.48286 -0.53804,-3.09078 -0.65749,-4.48298 -0.40733,-4.85773 -0.32754,-9.74433 -0.16624,-14.61179 0.11538,-3.3689 0.79376,-6.7223 2.18482,-9.80236 1.95216,-4.55571 4.36552,-9.07222 7.1097,-13.09393 3.22167,-4.76597 7.10298,-9.31935 11.345,-13.3239 1.27059,-1.19808 2.56668,-2.35454 3.81254,-3.38487 2.59135,-2.16713 5.34394,-4.18211 8.13411,-5.96124 3.09444,-1.98934 6.47843,-3.80999 9.75131,-5.26749 4.93939,-2.22498 10.16168,-3.78344 15.49027,-4.74209 2.43155,-0.56906 4.93384,-1.01234 7.21286,-2.06651 1.48245,-0.81964 1.50215,-2.72763 1.36133,-4.20703 -0.54387,-4.82281 -1.92288,-9.50136 -3.21534,-14.16465 -2.89932,-10.02249 -6.3902,-19.86453 -10.20513,-29.57212 -1.07386,-2.941 -2.01151,-5.938 -2.69281,-8.99565 -0.0716,-0.3332 -0.21376,-1.04488 -0.28558,-1.5326 -0.26887,-2.19953 -0.0692,-4.42733 -0.13044,-6.63888 0.15318,-0.76778 -0.0715,-1.18176 -0.89806,-1.03217 -8.74568,-0.63263 -17.52081,-0.96082 -26.22694,-2.05221 -5.82687,-0.72197 -11.80586,-1.78188 -17.56939,-3.243 -1.71096,-0.43278 -3.29123,-0.87707 -5.01767,-1.38204 -10.19606,-3.0676 -20.00299,-7.40583 -29.20784,-12.74946 -12.28515,-7.16961 -23.1203,-16.66695 -32.32057,-27.48433 -5.3358,-6.20639 -10.08393,-12.88448 -14.65503,-19.66532 -2.00239,-2.92286 -4.00317,-5.84683 -6.00684,-8.76882 -6.41477,3.16083 -12.76931,6.4459 -19.23091,9.51041 -13.84145,6.42321 -28.77188,10.41661 -43.93943,12.00753 -5.0906,0.54788 -10.21935,0.84802 -15.28527,0.94053 -15.46673,0.2607 -30.91754,-1.27071 -46.1731,-3.73259 -5.38734,-0.89857 -10.82924,-2.00154 -16.0959,-3.17705 -13.69583,-3.12537 -27.27073,-6.88754 -40.44107,-11.79741 -6.48358,-2.48365 -12.88702,-5.19612 -19.49448,-7.34126 -0.47749,-0.10188 -0.98466,-0.30007 -1.47266,-0.16992 z"
       id="path8" />
    <path
       id="path7"
       style="fill:#a3d1cd"
       d="m 558.75781,78.613281 c -15.41415,0.47473 -30.36682,5.716624 -43.63535,13.380258 -3.44839,2.075358 -7.08997,3.991825 -9.93105,6.897086 -3.11747,3.234005 -4.08914,7.763105 -6.18946,11.607425 -0.80749,1.43648 -1.92396,3.18997 -3.78939,3.1442 -4.96744,0.0701 -9.91753,-0.50934 -14.85087,-1.02558 -11.02097,-1.39422 -22.06504,-2.66177 -33.15297,-3.37976 -9.62707,-0.45238 -19.27114,-0.005 -28.88108,0.60588 -10.93152,0.7656 -21.86106,1.82118 -32.65967,3.71776 -7.28908,1.40312 -14.54107,3.03641 -21.89208,4.09749 l -3.72706,0.49821 c -5.97819,-8.17489 -11.9553,-16.35057 -17.9336,-24.525391 -11.48301,0.700385 -22.98611,1.187452 -34.42522,2.457951 -9.95098,1.095072 -19.90213,2.383436 -29.68866,4.5267 -11.9062,2.61606 -23.00752,8.48826 -32.20158,16.44905 -6.37417,5.5648 -11.87311,12.32148 -15.11809,20.19301 -1.59737,3.53099 -2.34106,7.3837 -2.50732,11.24127 -0.38668,6.77684 0.1051,13.58609 -0.54617,20.34942 -0.22608,1.38904 -0.29771,3.07273 -1.48366,4.01893 -2.3137,1.17569 -4.95178,1.45226 -7.47517,1.91027 -8.41281,1.24812 -16.90796,1.81979 -25.33157,2.98592 -13.06413,1.73098 -26.15465,3.96051 -38.63903,8.29233 -9.43846,3.27019 -18.42128,8.08104 -25.91896,14.73012 -7.43853,6.54141 -13.75385,14.52444 -17.58104,23.71162 -2.26632,5.47079 -3.97413,11.2257 -4.58124,17.13105 -0.7177,6.78217 0.58414,13.63671 2.99985,19.97065 1.46122,4.11047 3.76938,7.94165 4.55505,12.27327 0.32117,1.5827 -0.0979,3.34751 -1.39508,4.38735 -2.37837,1.99556 -5.39435,2.98772 -8.26878,4.03627 -6.898837,2.33528 -13.961771,4.08837 -20.888255,6.33981 -12.935781,4.12712 -25.806004,8.88647 -37.430458,16.00542 -7.245219,4.48508 -13.986228,9.88227 -19.579409,16.33235 -4.817928,5.61256 -8.728523,12.3554 -9.591273,19.81248 -0.788186,6.26245 0.944827,12.67692 4.323109,17.96042 3.440161,5.39219 8.205471,9.8522 13.467369,13.43981 6.731796,4.40753 13.83718,8.21941 21.050764,11.77234 5.175599,2.53419 10.487464,4.87272 15.286077,8.09406 1.538911,1.14486 3.397544,2.43323 3.678868,4.48046 0.07591,1.71442 -0.572136,3.40749 -1.424961,4.86915 -1.402247,2.18091 -4.157551,2.74412 -6.555717,3.025 -3.897453,0.43331 -7.836942,0.12368 -11.734733,0.58196 -7.579551,0.73048 -15.220294,2.63356 -21.723222,6.71726 -4.444977,2.80701 -8.347514,6.97793 -9.605469,12.20508 -0.709191,2.79792 -0.595444,5.82635 0.601066,8.47748 1.990218,4.61924 5.455148,8.40509 9.037277,11.8547 6.852676,6.43135 14.729455,11.69185 22.947896,16.20984 8.249075,4.4787 16.942152,8.23736 26.03815,10.61374 8.972771,2.1212 18.266961,2.38254 27.445031,2.07613 3.7683,-0.13089 7.59501,-0.73979 10.96557,-2.51505 4.7896,-2.29713 8.93946,-5.90064 11.81662,-10.37268 2.75238,-4.11992 4.50182,-8.7855 6.20726,-13.4061 1.1736,-2.80854 2.46319,-5.75036 4.81914,-7.77691 1.17529,-1.06062 2.94569,-1.29824 4.35285,-0.56515 2.81666,1.3785 4.81833,3.92956 6.66964,6.37895 2.72326,3.73681 4.85969,7.86076 7.61629,11.57707 3.73369,5.19322 7.88123,10.18674 12.93998,14.14494 4.61295,3.65846 10.50845,5.33697 16.31165,5.72346 3.42621,0.16016 7.08855,-0.0268 10.10778,-1.82544 2.62032,-1.67441 5.32259,-3.84906 6.02391,-7.04349 0.75672,-3.48449 -0.49005,-6.98329 -1.64013,-10.23561 -1.94188,-5.07766 -4.25871,-9.99295 -6.01659,-15.14732 -1.91354,-5.40033 -3.54143,-11.06415 -4.72191,-16.74278 -0.79501,-3.82091 -1.43078,-7.85454 -1.82772,-11.8053 -0.18331,-1.80563 -0.34014,-3.81422 -0.43087,-5.65052 -0.19718,-3.75693 -0.18739,-7.72107 -0.0148,-11.32933 0.41586,-8.72994 1.81121,-17.39613 3.90039,-25.87696 0.19097,-0.75954 0.46154,-1.80889 0.68308,-2.67972 1.34002,-4.84481 2.64593,-9.73008 4.64608,-14.35318 1.0745,-2.4056 2.59641,-5.00445 5.29193,-5.79327 2.93488,-0.87051 6.03843,-0.31035 9.02875,-0.81594 5.68814,-0.68687 11.4196,-3.14088 14.98883,-7.77 2.70693,-3.4363 3.87327,-7.87537 3.76781,-12.20581 0.0683,-2.49322 -0.0415,-5.31494 1.67164,-7.3352 2.00442,-2.13686 4.79906,-3.25691 7.41166,-4.4551 6.05774,-2.59276 12.25163,-4.86193 18.23733,-7.62557 9.22291,-4.13643 18.03981,-9.1737 26.25685,-15.06264 4.67631,-3.26061 9.12754,-6.83318 13.35263,-10.65951 7.583,-6.86977 14.83233,-14.13634 21.39455,-21.99394 3.28819,-3.84759 5.89823,-8.19601 8.71496,-12.38464 0.68365,-0.56584 -0.44057,-0.8071 -0.76905,-1.19123 -3.51611,-2.58397 -7.13237,-5.05911 -10.29291,-8.08599 -6.23475,-5.791 -12.02467,-12.07055 -17.265,-18.77576 -3.83332,-4.87456 -6.6255,-10.47305 -8.96058,-16.1916 -2.88457,-7.30151 -4.96898,-15.05097 -4.98406,-22.94735 -0.0378,-1.42926 0.45968,-2.86027 1.53191,-3.8351 1.76678,-1.84766 4.44973,-2.45553 6.92093,-2.53962 1.23887,0.024 2.65882,0.0756 3.61875,0.95508 1.32675,2.66853 2.10688,5.57304 2.92487,8.42872 2.39403,9.45374 6.02399,18.67023 11.40928,26.83744 6.43609,9.91315 15.33677,18.06981 25.32642,24.31329 8.13572,5.11589 16.93439,9.06702 25.78726,12.75816 16.4316,6.69692 33.42294,12.02854 50.7337,15.92879 4.95168,1.18674 9.99503,1.93683 15.06279,2.40339 12.80499,1.19985 25.67824,1.55086 38.53536,1.46562 8.07421,-0.11896 16.17366,-0.30533 24.18704,-1.37691 7.53238,-1.1918 14.93936,-3.20659 22.04385,-5.98001 8.5553,-3.32915 16.56197,-7.93837 24.03376,-13.24831 3.11019,-2.05301 6.19457,-4.30725 9.78066,-5.45298 1.58052,-0.5257 3.41158,-0.26914 4.6623,0.87511 2.4572,2.15384 4.00347,5.10934 5.61002,7.90383 2.63846,4.88112 5.05794,9.88451 7.98399,14.60572 7.5837,12.5765 17.37961,23.91483 29.24893,32.6232 13.03937,9.66571 28.27637,16.03435 43.95857,19.96691 8.93886,2.07815 18.14132,2.7351 27.29477,2.94072 6.32732,0.10628 12.7551,-0.0979 19.00237,-0.62746 2.35073,-0.1246 4.83223,-0.50528 7.08853,0.36094 1.91677,0.89741 2.55753,3.12388 3.17399,4.97751 1.23474,4.25122 1.86099,8.6563 3.20389,12.88038 2.93846,10.01683 8.01324,19.53799 15.45215,26.93849 6.34045,6.39553 14.23195,11.08894 22.59817,14.3261 3.23673,1.34308 6.49151,2.74621 9.40124,4.71971 2.26501,1.86282 2.38642,5.27464 1.31054,7.8125 -0.87465,2.08926 -2.68815,4.07616 -5.04317,4.32834 -3.24381,0.11456 -6.39603,-0.91418 -9.43289,-1.94208 -2.50131,-0.88854 -4.93919,-1.94835 -7.32276,-3.11478 -1.02426,-0.51079 -2.26458,-1.1461 -3.34977,-1.75267 -3.56561,-1.95128 -6.83346,-4.23126 -10.29473,-6.42885 -2.15789,-1.39507 -4.3163,-2.78933 -6.47464,-4.18371 0.85251,4.35114 1.82366,8.8237 2.56445,13.10742 0.45212,2.68277 0.83655,5.37722 1.14952,8.01363 1.18891,10.14523 1.61412,20.26544 1.17739,30.46846 -0.35315,6.82166 -0.94648,13.70486 -2.88551,20.28354 -2.2991,7.03578 -5.45918,13.75951 -8.86232,20.3211 -1.98429,3.76634 -4.13173,7.46146 -6.73591,10.83739 -0.90658,1.40238 -2.05346,2.74982 -2.45307,4.40113 -0.28095,1.43579 1.06031,2.69401 2.44708,2.72662 1.79682,0.11378 3.48331,-0.66452 5.22532,-0.97765 0.63566,-0.13504 1.54296,-0.34788 2.19623,-0.48414 3.75348,-0.65119 7.54667,-1.93938 10.36906,-4.59766 2.43472,-2.19985 3.88547,-5.45259 3.74526,-8.74633 0.005,-1.90549 0.81042,-3.87603 2.49609,-4.88672 3.23817,-2.00654 7.12824,-2.39567 10.79693,-3.06708 9.36682,-1.6392 18.35331,-5.63397 25.63782,-11.77887 7.72555,-6.42694 13.4701,-14.92342 17.73308,-23.95668 1.77849,-3.52004 3.50516,-7.15616 6.15032,-10.12366 1.09774,-1.27422 2.79879,-2.33484 4.53341,-1.78855 2.75036,0.82711 4.92983,2.83425 7.071,4.65906 3.34856,3.09503 6.64109,6.33104 10.61242,8.63597 4.4996,2.75074 9.79031,3.96878 15.02999,4.02901 6.44924,0.14653 12.78211,-1.47745 18.88837,-3.39921 6.79153,-2.23876 13.40843,-5.04246 19.68449,-8.47421 12.12113,-6.72303 22.47461,-16.83838 28.82656,-29.21515 6.35043,-12.25176 8.61132,-26.58909 6.21162,-40.18859 -2.09054,-12.14337 -6.93257,-23.65244 -12.91856,-34.3634 -4.58927,-8.22825 -10.04048,-15.93779 -15.82695,-23.36064 -3.82715,-4.89471 -7.64446,-9.8451 -12.15658,-14.13789 -2.10154,-1.89534 -4.47395,-3.91108 -7.41287,-4.15843 -1.92942,-0.0734 -3.66663,-1.19119 -5.07481,-2.43533 -1.10072,-1.00548 -2.11474,-2.26516 -2.1577,-3.82604 -0.31704,-3.8068 0.13697,-7.62449 0.26986,-11.43118 0.24056,-4.90752 0.59933,-10.01198 -1.19953,-14.69549 -3.17193,-8.44382 -8.16485,-16.30051 -15.00314,-22.24479 -7.9731,-7.03354 -18.05019,-11.26774 -28.34955,-13.54064 -13.08865,-2.8878 -26.61107,-3.0618 -39.93798,-2.24953 -7.66138,0.49141 -15.26946,1.20715 -22.95117,1.40429 -1.62581,-0.063 -3.39054,0.15463 -4.88477,-0.61328 -1.10394,-0.80025 -2.05913,-1.95298 -2.10606,-3.37604 -0.31627,-3.86246 0.12205,-7.73659 0.34654,-11.59326 0.31602,-5.16717 1.00649,-10.3422 0.65997,-15.52494 -0.29971,-4.1049 -1.69234,-8.04394 -3.33967,-11.784 -2.89893,-6.05145 -7.07246,-11.41694 -11.70726,-16.23543 -3.60423,-3.70045 -7.63509,-7.03389 -12.21636,-9.45785 -5.36687,-3.08811 -11.13737,-5.58348 -17.2517,-6.71271 -7.83837,-1.49123 -15.84982,-1.59494 -23.80158,-1.77188 -4.06366,-0.0642 -8.23988,-0.13103 -12.23036,-0.26068 -3.04181,-0.11335 -5.99755,-0.2417 -9.00195,-0.5 -1.32601,-0.1236 -2.89034,-0.25978 -4.28208,-0.56742 -0.85499,-0.0815 -1.09251,-1.08015 -1.56546,-1.66138 -2.17414,-3.50437 -3.47328,-7.45158 -5.53076,-11.01858 -3.94017,-7.21817 -8.55895,-14.13784 -14.39168,-19.974096 -8.22845,-8.370801 -18.73305,-14.52478 -30.14257,-17.349468 -6.11842,-1.546858 -12.45536,-2.167929 -18.75933,-1.981795 z"
       sodipodi:nodetypes="sccccccccccccccccccccccccccccccccccccccccccccccccccccccccccccccccccccccccccccccccccccccccccccccccccccccccccccccccccccccccccccccccccccccccccccccccccccccccccccccccccccccccccss" />
    <path
       id="path6"
       style="fill:#d19da1"
       d="m 496.60156,27.232422 c -3.90515,2.794145 -7.9117,5.473235 -11.46332,8.722847 -4.67102,4.081721 -8.56183,8.931655 -12.56988,13.638481 -3.95954,4.443257 -7.86335,9.04356 -12.7129,12.553493 -2.13052,1.484897 -4.85068,2.47273 -7.43824,1.704809 -3.42183,-0.792203 -6.12736,-3.194324 -8.52464,-5.629396 -5.28524,-5.384628 -9.87664,-11.401451 -14.29742,-17.501305 -2.23803,-3.117006 -4.42961,-6.288084 -6.93587,-9.193929 -0.90928,-0.866731 -2.52787,-0.759431 -3.22962,0.31074 -0.49685,0.870685 -0.80033,1.850625 -1.2686,2.746994 -2.61102,5.701335 -4.59593,11.666474 -7.25091,17.348438 -0.51793,1.114957 -1.17566,2.4332 -1.78516,3.609375 -3.50376,6.586297 -7.78473,12.988766 -13.78258,17.557448 -4.14199,3.159681 -9.37315,5.146356 -14.63377,4.628891 -3.42993,-0.219674 -6.66103,-1.515586 -9.69463,-3.053575 -8.23516,-3.996834 -15.96584,-8.924405 -23.9785,-13.332123 -2.43502,-1.378199 -4.87003,-2.756418 -7.30505,-4.134626 5.5033,9.857663 10.95669,19.748763 16.94349,29.32441 2.66531,4.308527 5.28114,8.675826 8.35445,12.711226 1.80962,2.03938 4.77283,2.87696 7.39926,2.19104 4.40865,-0.78932 8.80267,-1.662548 13.23747,-2.299617 12.08492,-1.851513 24.18117,-2.986471 36.38125,-3.564344 10.14312,-0.470969 20.35526,-0.576252 30.5415,-0.21623 8.05553,0.294404 16.28902,0.85709 24.36622,1.816749 3.62498,0.412356 7.32947,0.896119 10.9873,1.349266 2.05735,-7.266263 3.87999,-14.600898 5.27475,-22.02441 2.09867,-10.688778 3.96126,-21.432762 5.26807,-32.249077 0.68902,-6.485129 1.06872,-12.998572 1.59975,-19.497997 -1.1608,0.827474 -2.32161,1.654948 -3.48242,2.482422 z M 698.79688,418.96094 c -4.74849,0.51296 -9.58749,0.90078 -14.08648,2.62905 -7.91338,2.84046 -15.07548,7.5173 -21.3567,13.05987 -5.86758,5.27351 -11.07128,11.55837 -13.95728,18.97471 -2.34389,5.9651 -3.00412,12.7073 -1.14671,18.89732 1.93913,6.83511 6.28382,12.6802 11.14656,17.73767 1.06248,1.10758 2.12498,2.21514 3.18771,3.32247 7.21024,-6.46754 14.26989,-13.17212 20.33467,-20.74703 6.47007,-8.16974 11.57404,-17.5082 14.31768,-27.59281 1.91434,-6.79346 2.75571,-13.82269 3.42332,-20.83095 0.20458,-1.90922 0.40916,-3.81843 0.61379,-5.72765 -0.82552,0.0925 -1.65104,0.1849 -2.47656,0.27735 z m -471.06836,7.80859 c -4.72408,0.0146 -9.44051,0.32765 -14.13477,0.84766 1.25467,4.85739 2.77677,9.65816 4.87829,14.22115 3.76727,8.61683 8.13811,17.04887 13.9782,24.46113 9.40761,12.24487 21.1966,22.48073 33.84411,31.25744 1.40017,0.91762 2.84637,1.76271 4.26815,2.64621 2.63223,-2.47833 5.00311,-5.25819 6.76404,-8.42856 4.1948,-7.03219 7.55203,-14.77255 8.30313,-23.00263 0.75627,-7.16795 -0.18106,-14.76121 -3.94412,-21.02193 -4.10716,-6.67981 -10.75441,-11.40641 -17.81877,-14.56358 -11.29628,-5.06775 -23.85799,-6.5883 -36.13826,-6.41689 z"
       sodipodi:nodetypes="cccccccccccccccccccccccccccccccccccccccccccccccccccc" />
    <path
       style="fill:#e06f98"
       d="m 469.47461,595.76953 c -1.59406,0.57332 -2.68724,1.98505 -3.91171,3.08908 -5.55908,5.70182 -10.73249,11.77164 -15.68647,18.00272 -5.28217,6.61835 -9.5922,13.9913 -12.99824,21.73557 -1.6675,3.96778 -3.27392,8.05951 -3.68874,12.37771 -0.167,1.89111 0.15099,4.04873 1.73994,5.29318 2.48536,2.12777 5.39907,3.73554 8.42702,4.95123 2.26639,0.93298 4.84003,0.72565 7.06351,-0.22683 2.295,-0.81324 4.36173,-2.18938 6.0089,-3.98135 3.77191,-4.05294 6.26143,-9.11026 8.25709,-14.22583 1.91275,-4.7009 2.74665,-9.73263 3.70923,-14.68877 1.50851,-8.34721 2.84469,-16.7343 3.69724,-25.17621 0.12204,-1.86804 0.45828,-3.78619 0.0561,-5.63683 -0.19313,-0.6734 -0.6346,-1.26382 -1.32342,-1.47225 -0.38878,-0.20954 -0.93296,-0.14317 -1.35041,-0.0414 z"
       id="path22" />
    <path
       style="fill:#e06f98"
       d="m 443.08203,592.7207 c -2.53195,0.88422 -4.94176,2.09624 -7.40252,3.16144 -2.38732,1.08563 -4.72387,2.191 -7.08463,3.19844 -10.92946,4.6072 -22.18707,8.39593 -33.53135,11.83895 -4.13456,1.23224 -8.35514,2.42019 -12.46719,3.45359 -3.44441,0.85861 -6.971,1.65468 -10.40453,2.18643 -6.97674,1.09436 -14.10587,1.42319 -21.12931,0.58107 -0.98908,-0.1246 -2.23451,-0.30424 -3.31646,-0.50586 -3.43012,-0.56509 -6.71411,-1.72228 -9.99649,-2.8273 -1.55358,-0.44631 -3.10676,-1.08052 -4.7295,-1.147 -1.5666,0.26188 -2.33931,1.83565 -3.20572,2.99349 -4.12864,6.25548 -7.41482,13.00883 -11.14399,19.50007 -18.37365,32.68996 -39.01816,63.99523 -60.55156,94.66385 -16.85495,24.00051 -34.34292,47.54765 -52.02388,70.94371 -4.00878,5.32496 -8.01846,10.64925 -12.02654,15.97475 7.30213,1.32318 14.60958,2.50151 21.87124,3.95638 1.91079,0.39852 3.86637,0.84062 5.61899,1.27604 6.01069,1.48614 12.01065,3.51502 17.67383,5.80078 5.74165,2.31669 11.29082,4.86352 16.88831,7.54611 18.69047,9.01044 37.06307,18.99636 55.59791,28.46913 16.66629,8.50313 33.43771,16.84546 50.69799,24.08736 12.38072,5.2054 25.08404,9.66086 38.0718,13.09529 10.31098,2.73048 20.7249,5.15988 31.2909,6.67172 5.24433,0.74007 10.56038,0.5801 15.84202,0.56834 11.86609,-0.20068 23.73265,-0.77631 35.54467,-1.94186 6.36078,-0.60703 12.61183,-1.9775 18.86348,-3.25109 23.89635,-5.03714 47.12012,-12.74283 70.13027,-20.82438 25.32275,-8.87757 50.3497,-18.57146 75.66835,-27.46163 13.67806,-4.78842 27.40428,-9.42481 41.36046,-13.41865 5.15997,-1.47423 10.5205,-2.89852 15.73867,-4.1377 10.44302,-2.52561 21.05171,-4.39041 31.65817,-5.92819 4.49952,-0.68029 8.99904,-1.36059 13.49856,-2.04086 -4.5768,-4.89411 -9.28412,-9.66809 -13.74918,-14.66532 -7.32188,-8.38784 -14.03299,-17.17797 -20.67269,-26.1003 -12.24075,-16.60857 -23.9629,-33.66421 -34.96206,-51.16828 -6.75763,-10.71289 -13.02575,-21.72995 -18.8433,-32.9804 -8.53061,-16.43524 -16.48154,-33.33359 -23.85356,-50.32095 -5.7114,-13.19505 -11.13418,-26.54385 -15.91863,-40.13466 -1.52956,-4.36035 -2.92492,-8.81909 -5.21053,-12.8577 -0.57962,-1.14785 -1.74229,-1.88267 -3.02247,-1.94426 -4.10088,-0.38426 -8.08952,0.91551 -12.14229,1.28445 -5.95701,0.70443 -11.95173,1.03327 -17.9456,1.20969 -1.38973,0.0203 -3.0148,0.0724 -4.49646,0.0734 -4.05603,0.0397 -8.11286,-0.0262 -12.16565,-0.19256 -0.77953,-0.0458 -1.86419,-0.0998 -2.76089,-0.14874 -6.79907,-0.40542 -13.5418,-1.48035 -20.36801,-1.65399 -0.82194,-0.0192 -1.79942,0.11846 -2.33968,0.76079 -0.60229,0.81013 -0.5122,1.8557 -0.16181,2.7513 2.37987,6.31595 5.79566,12.17025 8.52118,18.33478 0.75004,1.63648 1.44136,3.24497 2.09554,4.85234 2.48639,6.07281 4.3392,12.45183 4.91602,19.00782 0.0376,0.4232 0.096,1.07482 0.12409,1.56132 0.11139,1.58364 0.16181,3.04292 0.1759,4.66561 -0.0488,3.50554 0.15973,7.05594 -0.50702,10.51721 -0.50757,2.3653 -2.08356,4.28638 -3.56641,6.12304 -0.34587,0.41519 -0.94443,1.06552 -1.4222,1.53917 -2.02839,2.00312 -4.23885,4.08059 -7.10666,4.73818 -3.93281,1.01642 -8.12639,1.06162 -12.08638,0.16406 -2.50897,-0.59885 -4.64904,-2.1153 -6.95034,-3.21304 -0.62658,-0.32678 -1.25316,-0.65355 -1.87973,-0.98032 -0.47381,5.66837 -0.88107,11.44271 -1.4043,17.02149 -0.79292,7.88365 -1.97383,15.76671 -3.83701,23.52074 -1.21047,4.79448 -2.51866,9.6434 -4.90577,14.00607 -0.77309,1.44031 -1.8918,2.8229 -3.54414,3.25086 -2.89456,0.86316 -6.31842,0.38879 -8.64539,-1.61367 -0.92399,-0.84901 -1.89262,-1.903 -1.763,-3.2601 0.0188,-1.96442 0.57737,-4.04954 0.96289,-5.84531 1.3903,-5.84356 3.27009,-11.72632 4.37715,-17.71143 3.75519,-19.60536 2.51318,-40.16993 -3.68872,-59.1508 -1.82705,-5.67082 -4.27927,-11.10893 -6.85607,-16.47179 -1.57483,-3.22852 -3.03581,-6.52471 -4.83673,-9.63479 -0.5738,-0.97844 -1.90116,-1.3256 -2.88621,-0.77627 -1.43361,0.95396 -1.60735,2.85463 -1.98783,4.39678 -0.5969,3.10466 -0.79611,6.27486 -1.54274,9.3537 -1.59898,7.41654 -3.76293,14.69627 -6.13579,21.89825 -1.59884,4.94765 -2.95516,10.02018 -3.25335,15.23389 -0.45565,7.0429 -0.30277,14.10708 -0.3353,21.1605 0.0657,7.20878 -0.0992,14.50325 1.41594,21.59243 1.1962,5.27759 2.83184,10.45297 4.71922,15.5227 4.27532,11.21404 9.88581,21.92066 16.63152,31.84464 2.83437,4.13674 6.04964,8.05438 8.29102,12.56445 0.25559,0.85549 -0.19621,1.77681 -0.4446,2.59861 -1.18268,2.93918 -3.42704,5.77655 -6.6179,6.58694 -1.30377,0.0848 -2.44354,-0.75857 -3.52574,-1.38014 -2.94179,-2.07855 -5.1851,-4.9654 -7.3735,-7.78674 -5.71833,-7.68077 -10.4233,-16.06805 -14.64766,-24.64649 -3.99812,-8.29451 -7.60463,-16.83902 -9.87498,-25.78233 -1.99054,-8.35558 -3.40161,-16.85148 -4.20295,-25.40365 -0.44578,-3.75713 -0.77907,-7.54075 -1.54503,-11.2492 -0.17294,-0.6519 -0.4722,-1.2986 -1.14391,-1.54786 -1.40083,-0.64586 -2.99241,-0.0524 -4.41201,0.26753 -1.70622,0.52967 -3.40796,1.11272 -5.20391,1.25154 -5.30149,0.57108 -10.91632,0.36842 -15.75498,-2.10321 -5.59215,-2.72952 -9.57983,-8.06413 -11.44095,-13.91924 -1.48456,-4.53484 -1.86479,-9.37786 -1.48181,-14.11818 0.047,-0.44767 0.0901,-1.03779 0.1614,-1.58611 0.60285,-5.34845 2.31012,-10.64476 4.38157,-15.49787 3.64049,-8.4627 8.22985,-16.51904 13.60599,-23.99848 3.25261,-4.52355 7.1221,-8.57951 10.228,-13.21051 0.39926,-0.62565 0.28334,-1.37643 0.35547,-2.08203 -0.58106,-0.36583 -1.11318,-0.96648 -1.72227,-1.19552 -0.27292,0.0652 -0.54583,0.13035 -0.81875,0.19552 z"
       id="path21" />
    <path
       style="fill:#e06f98"
       d="m 501.01758,586.16797 c -1.4318,-0.0243 -2.75398,1.22646 -2.62751,2.68983 0.15751,2.31235 1.17669,4.45536 1.9656,6.60457 3.66479,8.9138 7.99619,17.53423 12.37089,26.11575 4.75552,9.13834 9.59527,18.25077 15.1115,26.95809 1.35868,2.01014 2.6232,4.14015 4.39827,5.81731 2.3253,1.90718 5.63018,2.92902 8.55273,1.92968 1.73409,-0.66436 2.35575,-2.64179 2.43542,-4.34137 0.27485,-3.76557 0.0893,-7.57911 -0.82079,-11.25385 -1.96914,-8.22916 -5.72865,-15.90914 -9.98181,-23.18017 -4.00375,-6.69988 -8.53988,-13.09502 -13.65626,-18.99219 -3.73046,-4.01369 -7.94268,-7.61819 -12.6215,-10.48278 -1.5723,-0.88436 -3.26908,-1.88442 -5.12654,-1.86487 z"
       id="path5" />
    <path
       id="path2"
       style="fill:#1c1c1a"
       d="M 509.56055 1.4316406 C 507.18767 1.2735852 504.62807 1.6671163 502.10352 2.6269531 C 494.76553 5.4168466 478.79569 17.169305 468.0957 27.654297 C 461.91509 33.710717 456.14587 38.666016 455.27539 38.666016 C 452.03792 38.666016 446.93286 33.168949 436.20703 18.130859 C 424.92257 2.3095305 422.18947 0.15991451 415.49609 1.8398438 C 411.27137 2.9001853 409.13289 6.4856715 404.66406 20 C 396.68127 44.141045 387.22288 58.666016 379.48633 58.666016 C 377.77558 58.666016 366.11776 51.831804 353.33398 43.333984 C 340.64726 34.900668 329.3061 27.930153 328.13281 27.845703 C 320.1543 27.271453 316 30.420447 316 37.041016 C 316 41.611645 323.99066 63.53177 327.51562 68.630859 C 331.13665 73.868909 329.89028 75.755587 322.33398 76.474609 C 291.53836 79.404991 284.40695 80.340856 275.16797 82.669922 C 249.37198 89.172861 228.3632 104.70876 218.66602 124.45312 C 215.01368 131.88963 212.8194 138.65034 211.73242 145.81445 C 209.84852 158.23094 210.30062 157.91847 191.18555 159.98438 C 153.32545 164.07619 126.15318 176.21597 108.89062 196.75 C 93.63597 214.89561 87.536551 233.96171 90.296875 254.86914 C 91.103113 260.97566 91.510062 266.38106 91.201172 266.88086 C 90.892272 267.38066 85.694707 269.43052 79.652344 271.43555 C 41.602706 284.0615 15.827832 301.32117 6 320.75586 C 2.2768314 328.11847 2.0000531 329.68237 2.0019531 343.33398 C 2.0037031 356.18533 2.3924821 358.73071 5.1484375 363.90234 C 9.2354793 371.57183 19.937352 382.82626 28.158203 388.10156 C 31.738183 390.39883 34.666016 392.50398 34.666016 392.7793 C 34.666016 393.05461 32.284032 394.4944 29.371094 395.98047 C 10.710447 405.50042 3.348244 423.95237 11.351562 441.14453 C 20.324889 460.42039 55.713711 483.76859 85.429688 490.01953 C 108.4357 494.859 126.95444 489.96732 142.11719 475.04492 C 146.05473 471.1698 149.73896 468.03437 150.30469 468.07617 C 150.87042 468.11797 153.50982 471.01158 156.16992 474.50781 C 168.25199 490.38765 191.06126 497.63479 206.66602 490.55078 C 209.966 489.05269 215.95817 487.63559 219.98047 487.40234 L 227.29297 486.97852 L 237.5293 496.60938 C 254.31211 512.39744 282.98412 529.79154 312.33398 541.99219 C 317.28398 544.04989 321.32259 546.09322 321.30859 546.5332 C 321.27249 547.66348 293.0092 566.0634 274 577.33203 C 253.13556 589.70044 218.28909 607.27023 197.33398 615.98828 C 158.33248 632.21428 140.57958 643.25047 129.02344 658.45508 C 107.0004 687.43113 123.2096 719.26096 160 719.28516 C 173.04171 719.29416 191.21675 714.65711 232.82812 700.70508 C 250.7711 694.6889 265.19632 690.43498 264.88281 691.25195 C 264.02754 693.48076 244.12961 722.11536 228.22852 744 C 210.18858 768.8283 189.71237 795.48711 158.5918 834.66602 C 144.90304 851.89932 133.28632 867.32692 132.77734 868.94922 C 131.84596 871.91785 133.80945 877.16176 136.5332 878.98047 C 137.34008 879.51924 142.59073 879.96927 148.20117 879.98047 C 159.25529 880.0026 173.14078 882.10102 188.19141 885.81836 C 187.85537 886.49819 187.51184 887.17389 187.24414 887.90625 C 176.83709 916.37784 198.11305 944.54269 201.9043 989.93359 C 205.98707 1040.1381 202.86374 1097.5504 193.65234 1131.9277 L 190.7793 1142.6465 L 184.83008 1140.1738 C 177.13436 1136.9773 169.58704 1137.9166 164.57617 1142.6934 C 157.64164 1149.304 157.90003 1155.9378 165.33203 1162.0469 C 167.92605 1164.1792 172.20938 1166.5162 174.84961 1167.2402 C 179.2926 1168.4586 179.7601 1169.0879 181.14844 1175.6914 C 181.97344 1179.6154 182.58377 1185.8358 182.50391 1189.5137 C 182.35671 1196.2921 183.74169 1204.5046 185.76953 1208.8789 C 195.74635 1230.4008 231.63655 1231.8953 257.28711 1213.9883 C 270.85228 1205.1759 277.55385 1194.3677 282.69727 1179.2188 C 295.07435 1143.1966 308.04755 1107.27 314.47852 1071.791 C 319.9396 1041.6627 328.17775 1013.1039 329.39844 983.33594 C 329.87995 971.59373 330.77128 959.55384 329.34766 947.13477 C 329.35789 945.31763 329.25712 943.58204 329.19531 941.81836 C 349.65554 949.41193 366.19285 953.87376 390.25195 959.11523 C 404.00921 961.85297 413.85737 963.51893 424.11914 964.62109 C 446.51978 967.02703 476.86762 967.25321 498.36719 965.29688 C 516.92 963.60868 537.00352 959.60036 553.52148 955.68945 C 566.64027 952.58336 579.84579 948.69893 592.77344 944.62695 C 598.46491 954.19063 600.68101 965.15265 602.96484 973.60156 C 613.68575 1013.2629 618.72452 1048.7213 629.74609 1090.7812 C 642.36628 1138.9416 654.99212 1189.6255 670.60938 1203.0117 C 671.72165 1203.9651 672.81301 1204.6456 674.95703 1206.7715 C 681.98152 1213.7369 700.38712 1224.5717 709.4043 1227.0508 C 713.13708 1228.0769 718.84748 1229.0608 722.09375 1229.2363 C 728.87473 1229.6029 740.54312 1225.8456 746.18359 1221.4805 C 754.96527 1214.6846 758.48583 1206.2697 758.62109 1191.7461 C 758.69139 1184.1964 759.0455 1183.307 762.79883 1181.2402 C 766.87582 1178.9953 771.20158 1171.9428 770.39062 1168.8672 C 770.15745 1167.9815 771.59653 1164.3354 773.58789 1160.7637 C 775.57924 1157.192 777.09194 1152.6724 776.94922 1150.7188 C 776.57503 1145.596 772.53527 1139.3791 768.66211 1137.9688 C 764.88534 1136.5936 757.20436 1138.2704 752.83203 1141.4258 C 751.22267 1142.5872 749.57845 1143.1816 749.17969 1142.748 C 748.78092 1142.3145 747.20298 1135.4644 745.67188 1127.5234 C 743.13769 1114.3803 741.2183 1099.7208 739.39258 1084.418 C 735.44153 1051.3011 738.04631 1023.9653 740.12305 987.51367 C 741.50224 963.3056 746.85224 938.20116 741.32031 910.5625 C 740.36521 905.79064 737.52445 897.52448 733.625 891.71289 C 752.66162 884.76614 767.9369 879.73639 777.83203 877.24414 C 797.3928 872.31744 798.52733 871.94924 800.60742 869.86914 C 801.74043 868.73613 802.66602 865.95741 802.66602 863.69336 C 802.66602 860.19314 799.81314 856.66367 783.60938 840.12109 C 753.63774 809.52278 729.99822 780.10249 706.06445 743.61523 C 691.47613 721.37518 674.044 690.20734 675.85547 689.60352 C 676.51393 689.38403 681.76478 690.38754 687.52539 691.83398 C 693.28599 693.28045 709.09937 696.6536 722.66602 699.33008 C 736.23264 702.00655 757.63664 706.55257 770.22852 709.43164 C 804.75564 717.32608 819.41979 716.45973 831.89062 705.78516 C 840.0256 698.82191 843.13708 691.92895 843.24414 680.64062 C 843.36555 667.83965 837.94852 656.70867 826.29102 645.80469 C 815.39446 635.61248 803.77126 628.83357 777.87109 617.56445 C 736.1813 599.42528 702.39271 582.09735 672.66602 563.60938 C 658.86747 555.02762 630.69629 535.55201 630.67969 534.58398 C 630.67269 534.17231 635.61602 531.07856 641.66602 527.70703 C 647.716 524.3355 657.86823 517.87354 664.22656 513.34766 L 675.78711 505.11914 L 691.56055 504.84375 C 704.52164 504.61732 708.73044 504.01183 715.17383 501.45508 C 723.53477 498.13744 732.35252 491.09909 735.31055 485.37891 C 736.6257 482.83569 739.22212 481.23492 744.89062 479.47461 C 760.69487 474.56673 776.25368 462.76394 784.62109 449.33398 C 786.67713 446.034 788.51987 443.14075 788.7168 442.90625 C 788.91373 442.67176 791.38576 443.66025 794.21094 445.10156 C 827.07861 461.86941 880.68324 441.03578 899.89062 404.0293 C 906.61228 391.07884 909.20623 381.14951 910.17383 364.66602 C 911.14912 348.05146 908.94632 337.81361 900.74609 320.84961 C 893.33914 305.52664 884.75128 292.71561 871.99023 277.95312 C 866.4951 271.59614 860.89231 265.03757 859.53906 263.37695 C 857.96646 261.44719 856.67194 256.72792 855.95117 250.30078 C 853.54334 228.83026 838.23865 208.55159 817.07031 198.78516 C 801.02713 191.38331 795.35387 190.28697 768.66602 189.43359 L 744.66602 188.66602 L 743.66992 179.64258 C 741.6806 161.62988 734.69568 147.9193 721.0957 135.32812 C 705.78838 121.15625 688.1962 114.90869 660.2168 113.70898 L 642.43359 112.94531 L 635.45312 102.14062 C 622.49299 82.073309 602.99672 67.437742 582.66602 62.515625 C 573.51306 60.299669 553.89984 60.329519 543.33398 62.576172 C 538.934 63.511754 530.64321 66.075506 524.91016 68.271484 C 519.17709 70.467463 514.16288 71.940218 513.76758 71.544922 C 513.37228 71.149624 514.04208 64.03993 515.25781 55.746094 C 516.47354 47.452257 517.82657 32.812447 518.26367 23.212891 C 519.04981 5.9481881 519.02355 5.7357957 515.89844 3.546875 C 514.11875 2.3003357 511.93342 1.5896962 509.56055 1.4316406 z M 498.33203 28.554688 C 500.27994 30.502598 490.96795 86.28262 487.51758 93.333984 C 486.50714 95.39895 484.89419 96.569735 483.27734 96.412109 C 444.22819 92.605208 418.00857 92.678728 393.33398 96.664062 C 386.36734 97.789287 377.58368 99.076564 373.81641 99.525391 L 366.9668 100.3418 L 362.17969 92.859375 C 353.22086 78.854461 344.94023 63.948436 345.69727 63.191406 C 346.11245 62.776223 351.4628 65.395851 357.58789 69.013672 C 371.46203 77.208497 377.22844 79.143692 385.43164 78.355469 C 397.45534 77.200143 407.47239 65.726106 415.86328 43.494141 C 418.24939 37.172063 420.60487 32.0138 421.09961 32.03125 C 421.59434 32.0487 424.61903 35.907699 427.82031 40.605469 C 448.04017 70.277341 456.80747 72.198204 473.53125 50.623047 C 481.10449 40.852898 496.72767 26.95033 498.33203 28.554688 z M 564.75781 80.09375 C 572.91859 80.335221 580.48119 81.941744 586.85547 84.958984 C 602.39876 92.316337 613.80471 104.10539 622.11914 121.4082 C 624.91827 127.23335 627.83567 132.11649 628.60352 132.25977 C 629.37134 132.40305 639.00002 132.58225 650 132.65625 C 671.43929 132.80058 677.88748 133.95479 691.67188 140.11328 C 702.27257 144.8494 713.54022 155.91215 718.34961 166.30859 C 722.17741 174.58315 723.00597 185.75924 720.79688 199.33398 C 719.8426 205.19801 720.04682 206.30304 722.50195 208.52148 C 725.159 210.92237 726.19599 210.96187 744.05859 209.32812 C 791.3558 205.00226 817.83861 214.46202 831.78516 240.66602 C 834.96022 246.63162 835.33398 248.76508 835.33398 260.94727 C 835.33398 276.09517 836.04578 277.63874 843.96289 279.64453 C 847.53221 280.54882 850.68259 283.39392 857.72461 292.07422 C 881.32866 321.16955 890.66602 341.7923 890.66602 364.82812 C 890.66602 384.23989 884.61736 398.13422 870.37109 411.44531 C 855.87104 424.99356 836.38777 433.35719 819.44727 433.30469 C 808.1543 433.26969 801.12215 430.48224 795.14258 423.67188 C 789.17413 416.87419 786.09634 415.47841 781.76367 417.60547 C 777.92223 419.49138 778.09488 419.23339 771.76562 432.5918 C 763.4915 450.05503 749.31756 460.77005 729.49609 464.54688 C 724.12158 465.57093 719.07854 467.05621 718.28906 467.8457 C 717.49957 468.63519 716.51165 471.809 716.09375 474.90039 C 715.48945 479.37059 714.49012 481.0139 711.2168 482.92383 C 705.6961 486.14501 693.80357 487.87104 695.48438 485.20703 C 696.13424 484.17699 698.82547 480.03334 701.46484 476 C 715.99045 453.80298 720.50769 423.85832 714.18555 391.66602 C 713.21344 386.71602 712.72094 382.66602 713.0918 382.66602 C 713.46267 382.66602 716.68727 384.54081 720.25781 386.83203 C 728.40863 392.06241 740.92116 397.25928 745.46094 397.30078 C 751.29279 397.35408 756.17384 389.30861 753.42578 384.17383 C 752.65506 382.73372 747.85695 379.98258 742.63281 377.98633 C 733.47624 374.4874 722.50617 366.98798 716.4375 360.07812 C 709.73906 352.45122 703.96669 338.97571 702.00195 326.37695 C 700.65552 317.74305 699.69552 317.41293 678.32617 318.26562 C 663.86628 318.84262 656.9476 318.52627 649.33398 316.94141 C 625.00219 311.87639 605.14742 301.67307 589.13086 286 C 580.53709 277.59053 568.4339 260.33491 563.83203 249.93164 C 560.61332 242.65525 556.95626 238.66602 553.50195 238.66602 C 552.12791 238.66602 546.07018 242.02693 540.04102 246.13281 C 519.31599 260.24666 504.33371 264.94316 476 266.20898 C 435.55257 268.016 394.28919 259.03835 354.88281 239.85938 C 340.61395 232.91475 337.06031 230.49333 328.08789 221.59375 C 316.50622 210.10611 310.80998 200.1106 306.66797 184.00781 C 305.2884 178.64452 303.37484 173.75775 302.41406 173.14844 C 299.13557 171.06925 294.54889 171.99604 291.11328 175.43164 C 288.02134 178.52359 287.77024 179.52627 288.57227 185.57227 C 289.8192 194.97222 295.18086 208.54672 301.44727 218.16992 C 306.59255 226.07145 319.96183 239.88859 326.54102 244.10352 C 331.18368 247.07781 329.72284 250.73559 318.77539 263.54102 C 300.82441 284.53859 278.58469 300.2571 252 310.73828 C 244.30002 313.77405 237.322 316.81422 236.49219 317.49414 C 235.66238 318.17407 234.73191 322.19352 234.42578 326.42578 C 233.49785 339.25426 228.35671 344.06563 214.11133 345.43164 C 203.11272 346.48632 202.47259 347.14309 198.01758 362 C 193.31858 377.67054 192 386.74899 192 403.4082 C 192 421.22722 195.89475 438.62315 203.35742 454.13867 L 208.16602 464.13672 L 205.68164 468.40234 C 200.02807 478.10816 185.01724 477.25896 172.84766 466.54688 C 169.40862 463.51971 163.50917 455.99504 159.73828 449.82422 C 152.66893 438.25564 149.92179 436.22661 143.50195 437.83789 C 141.67583 438.29621 139.76406 440.19076 138.98047 442.31641 C 138.23363 444.34239 136.64669 448.74684 135.45508 452.10352 C 130.77152 465.2968 119.02415 472.53077 102.66602 472.29688 C 78.981911 471.9582 50.679841 459.59221 32.992188 441.85352 C 25.496885 434.33658 23.305055 428.24528 25.876953 422.08984 C 29.83927 412.60668 40.588036 407.61151 60.666016 405.92188 C 72.488731 404.92694 76 402.96091 76 397.33398 C 76 392.48028 73.986369 391.00527 54.564453 381.64258 C 34.670788 372.05247 24.603385 363.74029 20.041016 353.13477 C 16.678768 345.319 17.017758 339.08902 21.251953 330.87695 C 30.703151 312.54668 54.961659 297.89391 93.931641 286.97461 C 117.38086 280.4042 119.27622 278.13641 112.33984 264.95508 C 109.09375 258.78643 108.67983 256.563 108.67383 245.30469 C 108.66783 233.63096 109.02048 231.89226 113.06641 223.67383 C 121.22746 207.09636 134.56803 195.36695 153.68164 187.96484 C 168.10006 182.38106 182.4512 179.78244 216.17773 176.64453 C 229.57641 175.39792 230.59575 173.95833 229.69336 157.58203 C 229.01977 145.35774 229.22343 143.81165 232.42773 136.8125 C 234.33193 132.65318 239.23783 125.7395 243.33008 121.44922 C 258.8717 105.15546 281.29487 98.086398 322.77148 96.402344 L 342.21094 95.613281 L 349.86523 106.47656 C 354.07603 112.45171 358.63837 117.9382 360.00195 118.66797 C 361.76086 119.60931 365.70416 119.24202 373.57422 117.40625 C 394.73715 112.4698 406.73345 111.33283 437.33398 111.36133 C 459.72263 111.38213 470.80741 111.98211 481.02734 113.72656 C 497.12474 116.47425 498.77173 115.97187 502.08398 107.29883 C 504.89674 99.933743 509.10556 96.232894 521.70508 90.046875 C 535.89402 83.080491 551.15652 79.691299 564.75781 80.09375 z M 348.06641 257.33398 C 348.63311 257.33398 353.99567 259.42975 359.98242 261.99219 C 373.9342 267.96379 393.25812 273.93776 409.33398 277.25 C 464.34862 288.58509 506.73824 285.31553 539.55078 267.20312 C 544.06994 264.70859 548.36386 262.66602 549.09375 262.66602 C 549.82364 262.66602 553.90834 267.91733 558.16992 274.33398 C 567.32001 288.11123 583.92903 305.28565 595.83789 313.28516 C 615.81864 326.70674 639.42908 334.24582 665.72656 335.60156 L 681.45508 336.41406 L 680.67188 339.97266 C 680.13853 342.40099 681.6138 347.95013 685.31445 357.43359 C 691.1201 372.31136 697.33003 393.43365 697.33203 398.30859 C 697.33273 400.47863 696.34093 401.48976 693.66602 402.05078 C 681.4976 404.60292 677.59369 405.83644 670.77344 409.2793 C 647.53971 421.00765 630.49877 444.8798 630.2832 466 C 630.16557 477.52506 633.68614 486.71089 641.49219 495.25195 L 648.0918 502.47461 L 642.37891 506.33984 C 613.37823 525.96361 559.35141 545.49318 514 552.74414 C 495.22865 555.74539 446.44136 556.44364 427.07031 553.98828 C 384.50351 548.59278 338.60379 535.16627 302.9707 517.6875 C 294.70421 513.6326 287.71571 509.94347 287.44141 509.49023 C 287.16711 509.03699 289.30702 504.76667 292.19727 500 C 300.09387 486.97669 303.10516 475.6554 302.41992 461.57227 C 301.42467 441.11806 292.64396 427.94317 274.20898 419.25 C 259.34384 412.2402 250.74745 410.40467 231.22461 410.06836 C 221.63104 409.90309 213.00981 409.29009 212.06641 408.70703 C 209.87281 407.35132 211.18319 388.5407 214.45117 374.47852 C 216.51702 365.58918 217.07747 364.60591 220.69336 363.52734 C 239.01347 358.0627 244.88099 353.29879 250.49219 339.33398 C 252.98919 333.1196 255.31657 329.45555 257.45508 328.37109 C 259.22158 327.47528 266.36734 324.06476 273.33398 320.79297 C 280.30065 317.52118 290.77942 311.65492 296.62109 307.75586 C 309.70294 299.02432 329.30946 280.47619 339.44141 267.24805 C 343.61843 261.79456 347.49972 257.33398 348.06641 257.33398 z M 627.69531 342.66602 C 619.46929 342.66602 615.59686 351.59685 621.33398 357.33398 C 622.80065 358.80064 625.50067 360 627.33398 360 C 629.16732 360 631.86734 358.80064 633.33398 357.33398 C 638.70638 351.9616 635.13264 342.66602 627.69531 342.66602 z M 302.43555 346.44141 C 299.91224 346.53011 297.46873 347.34409 296.375 348.83984 C 293.58548 352.65473 294.24793 359.55433 297.63086 361.92383 C 301.52104 364.64862 304.36484 364.54468 308.07422 361.54102 C 311.69964 358.60534 312.17591 351.60558 308.96875 348.39844 C 307.56091 346.99059 304.95885 346.35272 302.43555 346.44141 z M 505 403.97852 C 503.35 403.96672 495.89284 407.07171 488.42773 410.87891 C 475.92576 417.2549 473.96929 417.84842 463.63867 418.39062 C 451.42088 419.03189 442.33941 417.08722 430.20703 411.23438 C 421.94225 407.24731 419.04114 407.18271 415.08594 410.89844 C 411.41691 414.3453 411.0595 420.0912 414.33398 422.97461 C 418.33779 426.50022 430.3913 431.99329 438.36328 433.92578 C 448.9387 436.48933 469.12514 436.47067 479.14062 433.88672 C 494.99319 429.7969 513.33398 418.12711 513.33398 412.13086 C 513.33398 408.45695 508.7827 404.00552 505 403.97852 z M 698.66602 419.64844 L 698.64648 426.82422 C 698.59488 445.6066 690.36498 463.84119 674.25586 480.85938 C 668.45602 486.98652 663.32564 491.94882 662.85547 491.88672 C 661.25749 491.67575 653.08483 481.40929 650.53711 476.41211 C 644.59156 464.75025 649.86122 448.55429 663.73438 435.85352 C 672.03547 428.25392 684.97035 421.4856 693.33789 420.36328 L 698.66602 419.64844 z M 228.92969 428.28516 C 243.75365 427.82195 255.93694 430.38927 267.06836 436.32227 C 285.21277 445.99314 289.78057 464.53023 279.32812 486.07422 C 277.52953 489.78143 274.63395 494.15313 272.89258 495.78906 L 269.72656 498.76367 L 261.26953 492.40625 C 242.61543 478.3837 229.32322 462.345 220.46289 443.16797 C 213.94188 429.05408 214.11735 428.748 228.92969 428.28516 z M 602.57617 547.46484 C 603.60783 548.49651 611.98599 580.45932 611.38281 581.0625 C 611.10564 581.33967 608.57958 582.10574 605.77148 582.76562 C 599.8751 584.15127 572.53092 585.32745 564.66602 584.5332 C 545.39666 582.58727 523.31617 577.14097 517.13086 572.80859 L 514.2832 570.81445 L 517.47461 570.12305 C 519.23005 569.74265 525.76669 568.47482 532 567.30664 C 547.61815 564.37966 574.487 556.9239 589.41211 551.375 C 596.25733 548.83005 602.18134 547.07002 602.57617 547.46484 z M 624.29297 554.45312 C 624.52228 553.76521 630.99948 557.56543 638.6875 562.89844 C 672.66451 586.46747 719.20003 611.62738 756.66602 626.68359 C 778.64324 635.51545 787.61265 640.02884 799.5918 648.28516 C 816.02088 659.60845 825.33398 671.47815 825.33398 681.09375 C 825.33398 686.59174 820.07053 693.71488 814.62109 695.5918 C 806.84512 698.27001 800.35946 697.71787 780 692.64453 C 773.03335 690.90852 751.13394 686.15477 731.33398 682.08008 C 692.02266 673.99008 667.63841 667.79914 664.35938 665.07812 C 658.83561 660.49439 637.22458 603.94536 627.33008 568.18555 C 625.43068 561.32093 624.06366 555.14104 624.29297 554.45312 z M 338.34375 557.90039 C 338.9474 558.50405 330.35213 578.0482 323.34766 592 C 308.6872 621.20126 284.6962 661.85864 281.01172 663.74609 C 271.70544 668.51347 221.92013 685.37899 191.33398 694.125 C 178.58739 697.76985 170.82457 699.20094 162 699.5332 C 148.72098 700.03318 146.29362 699.3655 141.14062 693.80469 C 135.59763 687.82297 135.12085 682.49117 139.35547 673.83594 C 145.8282 660.60614 160.20815 651.41543 207.95898 629.99023 C 256.08053 608.39872 279.14895 595.92185 318.64648 570.12695 C 329.26861 563.1899 338.13208 557.68872 338.34375 557.90039 z M 358.73633 559.42969 C 359.47272 558.6732 367.0669 559.82943 378.30273 562.4082 C 400.14367 567.421 417.02523 570.33695 431.10742 571.52734 C 436.78037 572.00688 441.67681 572.81048 441.98828 573.31445 C 442.68288 574.43835 412.15836 588.47467 399.33398 592.92773 C 394.20067 594.71021 384.89933 597.31804 378.66602 598.72266 C 372.43268 600.12726 364.63398 601.24614 361.33398 601.21094 C 353.16227 601.12374 342.66602 597.77179 342.66602 595.24805 C 342.66602 592.99697 356.86299 561.35415 358.73633 559.42969 z M 500.27539 588.28516 C 500.64206 587.90693 501.57771 588.107 503.39258 588.5625 C 509.49425 590.09393 514.02652 594.08234 522.60352 605.46484 C 534.18017 620.82825 541.03673 635.7182 541.57422 646.66602 C 541.99213 655.17807 541.93636 655.33978 538.45898 655.74219 C 534.50906 656.1993 532.08679 653.50247 523.47461 639.05469 C 517.25034 628.61286 501.83958 596.59942 500.57031 591.47461 C 500.11115 589.62068 499.90872 588.66339 500.27539 588.28516 z M 444 594.51562 C 444 595.07039 440.69197 599.67571 436.64844 604.75 C 422.29898 622.75713 413.25211 645.95455 415.38867 659.26367 C 417.22921 670.72877 425.53608 679.5574 436.66602 681.87695 C 438.866 682.33544 443.8063 681.89035 447.64453 680.88867 C 451.48278 679.88703 454.93408 679.37744 455.3125 679.75586 C 455.69092 680.13428 456.00286 682.89423 456.00586 685.88867 C 456.01486 694.691 459.6512 714.59023 463.28711 725.72852 C 467.33554 738.13053 472.9481 749.59335 480.76758 761.42969 C 491.15774 777.15724 496.77779 780.55422 502.66602 774.66602 C 506.91824 770.41377 505.90499 766.06203 498.04688 754.84766 C 488.83861 741.70649 480.84593 725.05161 477.16602 711.33398 C 473.05019 695.99165 473.09231 668.80517 477.25391 654.66602 C 480.67051 643.05792 484.68104 627.25871 486.39258 618.66602 L 487.58789 612.66602 L 493.8418 625.75 C 497.28196 632.94534 500.9633 642.24471 502.02148 646.41602 C 507.15169 666.63885 506.85422 689.90359 501.19922 710.86133 C 499.68464 716.47444 498.64672 722.45759 498.89062 724.15625 C 499.87736 731.02777 511.47977 732.62041 514.83789 726.3457 C 518.3508 719.78179 522.7498 699.92716 523.55469 687 C 524.0227 679.48335 524.84072 673.33398 525.37305 673.33398 C 525.90539 673.33398 528.4943 674.234 531.12695 675.33398 C 537.48659 677.99121 540.74429 677.85603 547.33398 674.66602 C 563.08562 667.04077 563.01224 644.55142 547.13281 612.93359 C 543.85174 606.40057 541.37627 600.84638 541.63281 600.58984 C 541.88935 600.3333 545.97758 600.68224 550.7168 601.36719 C 562.72621 603.10283 590.50698 602.97265 603.78516 601.11719 C 616.62278 599.3233 615.77776 598.75987 620.16406 612 C 630.11658 642.04176 652.19189 690.93252 669.24023 720.69141 C 678.52076 736.89108 696.62184 764.9234 707.10742 779.33398 C 719.1803 795.92604 742.78702 825.09484 744.75391 825.84961 C 748.05449 827.11617 746.83779 829.33398 742.8418 829.33398 C 736.78676 829.33398 716.75414 833.01872 699.33398 837.33789 C 677.32145 842.79571 658.208 849.14883 610 867.02734 C 544.63729 891.2679 515.98594 899.96848 486.66602 904.48242 C 431.7285 912.94034 390.2994 903.03388 313.33398 863.03711 C 243.80652 826.90563 232.77208 822.13334 209.58203 818.16992 C 203.48579 817.12801 198.18672 815.96602 197.80664 815.58594 C 197.42656 815.20586 206.95227 801.79376 218.97461 785.78125 C 268.63217 719.64248 300.60776 671.52529 325.81836 625 C 329.29535 618.58335 332.25741 613.34061 332.40234 613.34961 C 332.54727 613.35861 336.47049 614.56038 341.11914 616.01758 C 351.23072 619.18722 366.03581 619.4604 378.98242 616.7168 C 391.19084 614.12962 421.55931 603.8756 433.9043 598.17188 C 439.45742 595.60617 444 593.96087 444 594.51562 z M 469.83594 597.87109 C 470.95311 597.80459 470.79232 599.93705 470.0957 608.1875 C 468.08966 631.94675 462.67022 649.35863 455.17188 656.13867 C 449.58591 661.18953 447.54479 661.49443 441.11133 658.24805 C 436.84901 656.09724 435.2286 654.43132 434.93359 651.89453 C 434.38341 647.16354 439.07703 635.1704 445.14453 625.80469 C 451.56326 615.89682 464.64537 600.4629 468.26562 598.52539 C 468.94947 598.15941 469.46355 597.89327 469.83594 597.87109 z M 187.52539 834.86133 C 190.22271 834.76653 193.65929 834.79693 197.18359 834.97461 C 216.22329 835.93473 227.7059 840.44965 287.67969 870.5625 C 316.82209 885.19491 345.76669 899.35996 352 902.04102 C 393.03085 919.68908 424.73319 926.34913 460.66602 924.86523 C 499.37393 923.26674 531.4084 914.77694 610 885.28906 C 683.54497 857.69471 714.20782 849.26523 752.9375 845.99219 L 763.87305 845.06641 L 770.14453 850.99219 C 776.21981 856.73228 777.04018 860 772.4082 860 C 767.86827 860 717.68882 877.84039 688 890.00977 C 584.77909 932.31976 553.88609 941.88235 502.66602 947.375 C 486.65587 949.09187 450.0979 949.72164 439.33398 948.4668 C 437.134 948.21033 429.63266 947.35004 422.66602 946.55469 C 379.18641 941.59081 345.9363 930.95127 274 898.98438 C 223.92123 876.73048 206.07129 870.81646 165.66016 863.08594 L 159.98633 862 L 170.11133 849.33398 C 175.68024 842.36733 181.16641 836.14122 182.30273 835.49805 C 182.87091 835.17647 184.82807 834.95615 187.52539 834.86133 z M 203.48633 890.25391 C 214.30306 893.54048 225.30267 897.27761 236.20508 901.875 C 243.79264 905.07458 262.89937 913.53383 278.66602 920.67383 C 292.24053 926.82112 303.48292 931.73894 313.38281 935.82031 C 316.43753 946.67063 316.76878 959.03916 316.67383 964.07227 C 316.54291 971.0122 305.14189 1042.3951 303 1051.3887 C 300.85811 1060.3824 293.59168 1087.7566 288.74609 1101.8535 C 284.44489 1114.3667 280.31766 1124.9802 279.57227 1125.4395 C 278.82687 1125.8987 273.37577 1126.1791 267.46094 1126.0625 C 252.13934 1125.7605 219.85759 1117.9814 217.4668 1114.0156 C 217.08571 1113.3837 217.714 1104.7485 218.86328 1094.8262 C 221.62455 1070.9868 222.85075 1048.2078 222.57031 1025.6738 C 222.00867 980.54404 215.83369 960.75728 210.29883 945.63477 C 205.20706 931.13447 198.2239 912.90823 201.5918 897.35547 C 202.15562 894.88546 202.79279 892.68026 203.48633 890.25391 z M 718.48633 897.43164 C 732.05497 918.78344 727.60673 943.88042 725.2793 969.33398 C 723.27217 990.52567 720.35886 1015.573 719.4082 1049.2754 C 719.05791 1061.6939 721.16202 1074.0635 721.40234 1086.4023 C 722.74751 1097.0199 722.84496 1102.6115 721.7168 1104.5312 C 720.78457 1106.1176 714.78286 1109.9451 707.71289 1113.4609 C 693.20255 1120.6766 665.7013 1128.725 662.74609 1126.6211 C 659.70782 1124.458 643.69403 1074.8046 636.9375 1044.8477 C 630.18097 1014.8907 630.32402 1017.4694 625.47461 989.56445 C 623.26246 975.0526 615.2272 949.90716 610.36133 938.86133 C 632.85021 931.19126 652.77022 923.46812 664.87891 918.51367 C 684.60412 910.44282 702.27009 903.55852 718.48633 897.43164 z M 726.81055 1124.6855 L 728.87109 1132.373 C 730.004 1136.601 731.28273 1142.8467 731.71289 1146.2539 L 732.49609 1152.4492 L 727.1582 1153.7168 C 711.67228 1157.3982 690.05692 1155.2778 677.375 1148.8301 L 670.98438 1145.5801 L 685.13477 1141.7246 C 697.77505 1138.2817 714.2879 1131.7504 723.51367 1126.5449 L 726.81055 1124.6855 z M 214.6875 1133.2695 L 229.41992 1137.5332 C 238.33225 1140.1111 248.68565 1142.1752 255.62695 1142.7598 C 263.43005 1143.417 267.44982 1143.7906 268.91602 1144.3418 C 270.3822 1144.8929 269.29472 1145.624 266.88477 1146.9941 C 260.53226 1150.6057 245.70242 1154.3692 236.55664 1154.6914 C 231.95802 1154.8535 224.17192 1154.3469 219.25586 1153.5664 C 208.8045 1151.9068 208.69871 1151.7124 212.28711 1140.6621 L 214.6875 1133.2695 z M 270.52539 1165.8516 C 270.86072 1165.8746 271.08611 1165.9569 271.17188 1166.1055 C 272.87983 1169.0639 268.63353 1177.3666 260.76562 1186.4531 C 250.99982 1197.7316 237.8873 1206.3089 228.29688 1207.6934 C 213.90525 1209.771 204.91218 1205.5848 201.17188 1195.0664 C 199.28706 1189.7661 200.42677 1186.785 207.5918 1178.2695 C 213.08222 1171.7442 214.2964 1170.9393 217.39453 1171.7695 C 227.82729 1174.5649 253.08478 1172.1127 265.41211 1167.1094 C 267.5304 1166.2497 269.5194 1165.7819 270.52539 1165.8516 z M 671.23242 1167.1113 C 672.8223 1167.1453 675.94678 1167.8561 679.26562 1168.9961 C 695.17616 1174.4615 708.14847 1175.3063 725.6582 1172.0176 L 736.85938 1169.9141 L 739.38867 1177.8223 C 742.57021 1187.7713 742.59162 1195.6161 739.45703 1201.7578 C 731.5332 1217.2833 699.01535 1208.745 680.24023 1186.209 C 672.70219 1177.161 668.45548 1169.1681 670.20312 1167.3125 C 670.34278 1167.1642 670.70246 1167.0999 671.23242 1167.1113 z " />
    <path
       style="fill:#e06f98"
       d="m 270.6053,1164.7038 c -1.83951,-0.023 -3.60341,0.6703 -5.37081,1.1085 -4.74255,1.3765 -9.37072,3.1771 -14.23997,4.0889 -10.00965,2.0978 -20.31234,1.8134 -30.45979,1.1639 -2.84469,-0.1607 -5.68954,-0.3187 -8.53411,-0.4814 -3.42487,4.3331 -6.98528,8.5615 -10.29592,12.983 -1.47748,1.996 -2.74767,4.3437 -2.59449,6.9052 0.0504,2.9447 0.8163,5.8527 2.19786,8.4526 1.46147,3.0264 3.84368,5.5481 6.70257,7.2969 5.41172,3.3719 12.11397,3.9367 18.29644,2.954 9.22767,-1.4932 17.75866,-5.9435 25.07011,-11.6546 7.9587,-6.249 14.54296,-14.2167 19.28901,-23.1462 1.05464,-2.1283 2.22997,-4.3374 2.32529,-6.7587 0.0491,-1.3936 -0.93603,-2.7973 -2.38619,-2.9121 z"
       id="path24" />
    <path
       style="fill:#f9f9f9;stroke:none;stroke-width:1.99937;stroke-linecap:round;stroke-linejoin:round;stroke-opacity:0.12549"
       d="m 267.84869,1144.3763 c -0.33072,-0.068 -0.87861,-0.069 -1.67017,0.01 -5.7366,0.5558 -36.20991,-4.9904 -43.61529,-7.9379 l -7.6579,-3.0468 -2.1762,8.1217 c -1.37746,5.1407 -1.55548,8.5535 -0.4852,9.2967 4.98287,3.4607 26.73019,3.5199 40.19276,0.1095 9.43049,-2.3889 17.72754,-6.0772 15.412,-6.5507 z"
       id="path20" />
    <path
       style="fill:#e06f98"
       d="m 670.55134,1165.6051 c -1.48428,0.466 -1.98729,2.2337 -1.66306,3.6262 0.71898,3.1972 2.42034,6.0611 4.04319,8.8705 3.84299,6.4436 8.62157,12.3469 14.30103,17.2634 8.13618,7.076 17.94532,12.4987 28.61228,14.4917 5.51441,0.9679 11.34824,1.4569 16.75461,-0.324 3.76823,-1.2266 7.03686,-4.0043 8.62394,-7.6636 2.14295,-4.8265 1.92567,-10.3019 1.12765,-15.4095 -0.85629,-5.1958 -2.4889,-10.2187 -3.78042,-15.3144 -0.20887,-0.7795 -0.41773,-1.559 -0.62663,-2.3386 -5.00796,0.8846 -10.01925,1.8553 -14.99094,2.6651 -3.04475,0.4698 -6.27162,0.7917 -9.24678,0.9581 -11.98035,0.6684 -24.1049,-1.0414 -35.38732,-5.1303 -2.27456,-0.7213 -4.54657,-1.5915 -6.93358,-1.8361 -0.28015,0.021 -0.57656,0.014 -0.83391,0.1417 z"
       id="path23" />
    <path
       style="fill:#f9f9f9;stroke:none;stroke-width:1.99937;stroke-linecap:round;stroke-linejoin:round;stroke-opacity:0.12549"
       d="m 724.39092,1127.1309 c -0.42255,0.1484 -0.91615,0.4135 -1.51817,0.7484 -7.87512,4.3813 -24.12289,10.617 -36.57246,14.0357 l -13.45165,3.6934 5.51709,2.6223 c 8.03893,3.8217 24.7392,6.5986 36.3246,6.0407 18.50353,-0.8913 18.68114,-1.1259 14.01169,-18.7032 -2.0004,-7.5302 -2.47973,-9.0795 -4.3111,-8.4373 z"
       id="path19" />
    <path
       style="opacity:1;fill:#f9f9f9;stroke:none;stroke-width:1.99937;stroke-linecap:round;stroke-linejoin:round;stroke-opacity:0.12549"
       d="m 183.63867,832.95898 c -0.55859,0.23763 -1.11719,0.47526 -1.67578,0.7129 -5.68652,6.89412 -11.55244,13.64391 -17.0332,20.70507 -1.33679,1.82765 -2.86423,3.56116 -3.84961,5.61328 -0.22988,0.6922 -0.21707,1.57444 0.41015,2.05469 0.58362,0.99485 1.83487,1.02041 2.81641,1.36719 8.56459,2.27376 17.29743,3.97052 25.85547,6.09961 9.72472,2.40836 19.4729,5.34136 29.0293,8.6289 15.58733,5.35808 30.92516,11.72813 46.05468,18.36133 22.95853,9.99027 45.97449,19.88228 69.41602,28.69532 19.18438,7.2066 38.76178,13.50033 58.83789,17.70703 11.26042,2.37997 22.63239,4.21912 34.05078,5.65039 13.45204,1.46848 27.01026,1.42896 40.52344,1.23047 20.02624,-0.35749 40.10126,-1.4247 59.87305,-4.78711 28.30777,-4.72399 55.64516,-13.81706 82.55078,-23.59375 23.1416,-8.43994 46.01062,-17.59864 68.91015,-26.66797 21.53805,-8.46723 43.06453,-16.77065 64.84571,-24.52539 8.35074,-2.91902 16.69513,-5.89517 25.23828,-8.21094 2.16057,-0.59944 4.37342,-1.09746 6.50195,-1.75977 0.36748,-0.44651 1.20442,-0.66183 1.21484,-1.28515 -0.009,-0.67553 0.22451,-1.42061 -0.3457,-1.93555 -4.23255,-4.28259 -8.5154,-8.5226 -12.76758,-12.78906 -0.83354,-0.25899 -1.64134,-0.75269 -2.53515,-0.4707 -12.29989,1.43856 -24.64519,2.60893 -36.83203,4.86328 -23.24325,4.16668 -45.80669,11.33537 -68.13282,18.89648 -27.78603,9.44569 -55.18541,19.92856 -82.86132,29.66992 -12.72113,4.47485 -25.46088,8.84759 -38.36719,12.82032 -3.93919,1.19831 -8.03444,2.4143 -12.0625,3.52148 -4.47044,1.23423 -9.13894,2.43333 -13.73828,3.47852 -2.06078,0.47074 -3.94946,0.86931 -6.02539,1.29296 -10.43796,2.11754 -21.03578,3.38744 -31.66407,4.02149 -4.01123,0.23879 -8.27036,0.42241 -12.30859,0.54101 -8.58623,0.26347 -17.1868,0.2436 -25.76367,-0.27148 -1.40732,-0.0994 -3.05299,-0.20163 -4.54883,-0.33398 -3.9409,-0.31959 -8.07368,-0.79793 -12.07227,-1.39063 -16.206,-2.38366 -31.95732,-7.16998 -47.26171,-12.91797 -8.51746,-3.49869 -16.87645,-7.42521 -25.2129,-11.27344 -19.27861,-8.95868 -38.44167,-18.26774 -57.55273,-27.61718 -17.79844,-8.62633 -35.63997,-17.16919 -53.68945,-25.25977 -4.10581,-1.7836 -8.17208,-3.69412 -12.41992,-5.12109 -7.17332,-2.23364 -14.57676,-3.72134 -22.03711,-4.58399 -5.11568,-0.47523 -10.24825,-0.74602 -15.3711,-1.13672 z"
       id="path18" />
    <path
       style="opacity:1;fill:#f9f9f9;stroke:none;stroke-width:1.99937;stroke-linecap:round;stroke-linejoin:round;stroke-opacity:0.12549"
       d="m 361.55273,558.05078 c -2.40331,0.0766 -4.07003,2.11496 -5.19921,4.01953 -2.58773,4.35904 -4.58275,9.03439 -6.76172,13.60352 -2.17615,4.79364 -4.51522,9.53645 -6.17774,14.54101 -0.70008,2.26313 -1.32762,4.99506 0.16211,7.08789 1.45055,1.92441 3.931,2.54625 6.12695,3.20508 6.52191,1.63807 13.34819,1.29833 19.9668,0.50586 12.35406,-1.6159 24.3685,-5.19444 36.01563,-9.54101 10.14994,-3.83202 20.0388,-8.35403 29.60742,-13.46485 1.44991,-0.87385 3.32736,-1.81607 3.56641,-3.6875 0.17507,-1.56153 -1.22165,-2.71742 -2.60157,-3.08203 -3.3274,-0.93457 -6.7998,-1.15899 -10.21679,-1.58594 -4.51567,-0.44199 -9.01559,-1.03214 -13.48243,-1.83203 -12.35863,-2.11492 -24.62993,-4.48269 -36.89648,-6.96679 -4.35806,-0.86659 -8.69169,-1.85585 -13.04297,-2.75 -0.35338,-0.0475 -0.70996,-0.0696 -1.06641,-0.0527 z"
       id="path17" />
    <path
       style="opacity:1;fill:#f9f9f9;stroke:none;stroke-width:1.99937;stroke-linecap:round;stroke-linejoin:round;stroke-opacity:0.12549"
       d="m 601.73633,546.9043 c -2.98227,0.49513 -5.85826,1.48427 -8.76367,2.30078 -8.10223,2.44761 -16.11061,5.16304 -24.25782,7.47265 -12.64688,3.64138 -25.37005,7.05278 -38.24609,9.79102 -3.63178,0.79463 -7.30928,1.3362 -10.99023,1.83984 -1.43666,0.28477 -3.26878,0.38584 -4.06055,1.82032 -0.68245,1.19904 0.011,2.68353 1.12695,3.33789 4.14016,2.68331 8.91791,4.13278 13.59961,5.55859 7.76617,2.2386 15.68332,3.95356 23.66016,5.24609 6.80086,0.97226 13.65376,1.69357 20.52734,1.80079 9.23521,-0.0493 18.46118,-0.72005 27.63672,-1.74415 2.80474,-0.38484 5.66687,-0.61417 8.375,-1.48046 1.23759,-0.36317 1.98007,-1.69239 1.72852,-2.94336 -0.59822,-4.40827 -1.73452,-8.72245 -2.74024,-13.05078 -1.45421,-5.82598 -2.87177,-11.67468 -4.77734,-17.37305 -0.31253,-0.90546 -0.67932,-1.8762 -1.58789,-2.33789 -0.33933,-0.21895 -0.83161,-0.25898 -1.23047,-0.23828 z"
       id="path9" />
    <circle
       style="opacity:0.5;fill:#000000;fill-rule:evenodd"
       id="path1"
       cx="302.2171"
       cy="354.38785"
       r="19.612198" />
    <circle
       style="opacity:0.5;fill:#000000;fill-rule:evenodd"
       id="circle1"
       cx="626.95862"
       cy="350.91467"
       r="19.612198" />
    <path
       id="path30"
       style="opacity:1;fill:#f5d3d6;fill-opacity:1;stroke:none;stroke-width:22.6772;stroke-linecap:round;stroke-linejoin:round;stroke-opacity:0.12549"
       d="M 203.48633 890.25391 C 202.79279 892.68025 202.15562 894.88546 201.5918 897.35547 C 201.17081 899.29956 200.91244 901.28564 200.79102 903.30078 C 200.66959 905.31592 200.68414 907.36069 200.81445 909.42188 C 201.07507 913.54425 201.7928 917.73403 202.77344 921.89062 C 203.75407 926.04722 204.99833 930.16933 206.31641 934.16016 C 207.63448 938.15098 209.02589 942.00969 210.29883 945.63477 C 211.68254 949.41539 213.10664 953.48707 214.47266 958.17383 C 215.83867 962.86059 217.14593 968.16324 218.29883 974.40234 C 219.45173 980.64145 220.44899 987.8182 221.19336 996.25586 C 221.93773 1004.6935 222.4299 1014.3914 222.57031 1025.6738 C 222.71053 1036.9408 222.47408 1048.2684 221.85742 1059.7598 C 221.24077 1071.2512 220.24391 1082.9065 218.86328 1094.8262 C 217.714 1104.7485 217.08571 1113.3837 217.4668 1114.0156 C 217.76565 1114.5113 218.53239 1115.0673 219.67383 1115.6602 C 220.81526 1116.253 222.3318 1116.8834 224.13281 1117.5293 C 227.73483 1118.821 232.473 1120.173 237.61523 1121.4121 C 242.75747 1122.6512 248.30312 1123.7776 253.52148 1124.6113 C 258.73985 1125.4451 263.63054 1125.987 267.46094 1126.0625 C 273.37576 1126.1791 278.82687 1125.8987 279.57227 1125.4395 C 279.94496 1125.2098 281.16354 1122.4409 282.82617 1118.166 C 284.4888 1113.8911 286.5955 1108.1101 288.74609 1101.8535 C 291.16889 1094.8051 294.19668 1084.4369 296.88672 1074.707 C 299.57676 1064.9772 301.92906 1055.8855 303 1051.3887 C 304.07094 1046.8919 307.45744 1026.7983 310.5918 1006.9609 C 313.72615 987.12354 316.60837 967.54223 316.67383 964.07227 C 316.7198 961.63513 316.63931 957.3757 316.22461 952.50391 C 316.19668 952.17862 316.16406 951.84693 316.13281 951.51562 C 315.92038 949.2597 315.63739 946.88762 315.24414 944.46094 C 315.18746 944.11291 315.10788 943.76143 315.04688 943.41211 C 314.66516 941.2174 314.1813 939.01558 313.60938 936.84961 C 313.51699 936.50162 313.43966 936.14791 313.3418 935.80273 C 303.45042 931.72421 292.22452 926.81387 278.66602 920.67383 C 262.89938 913.53384 243.79263 905.07458 236.20508 901.875 C 225.30268 897.27761 214.30305 893.54047 203.48633 890.25391 z " />
    <path
       id="path31"
       style="opacity:1;fill:#f5d3d6;fill-opacity:1;stroke:none;stroke-width:22.6772;stroke-linecap:round;stroke-linejoin:round;stroke-opacity:0.12549"
       d="M 718.48633 897.43164 C 702.2701 903.55851 684.6041 910.44283 664.87891 918.51367 C 652.77362 923.46673 632.86003 931.18752 610.37891 938.85547 C 612.76847 944.29817 615.8929 953.13433 618.74219 962.43164 C 618.89752 962.93736 619.02434 963.3513 619.17773 963.85938 C 620.44419 968.05902 621.62615 972.25712 622.65234 976.31641 C 622.80639 976.92516 622.92416 977.45976 623.07031 978.05859 C 624.08958 982.23545 624.96534 986.2236 625.47461 989.56445 C 627.89931 1003.5169 629.07526 1009.8494 630.49023 1016.4375 C 631.90521 1023.0256 633.55924 1029.8692 636.9375 1044.8477 C 638.62663 1052.3369 640.89368 1061.0575 643.39258 1069.959 C 645.89148 1078.8605 648.62243 1087.9421 651.23633 1096.1562 C 653.85022 1104.3704 656.34869 1111.7173 658.38281 1117.1445 C 660.41693 1122.5718 661.98653 1126.0803 662.74609 1126.6211 C 663.11549 1126.8841 663.86849 1126.9879 664.93164 1126.9551 C 665.99479 1126.9223 667.36825 1126.7525 668.97852 1126.4668 C 672.19906 1125.8954 676.36724 1124.8607 680.89648 1123.5352 C 685.42573 1122.2096 690.31554 1120.5938 694.98047 1118.8574 C 699.6454 1117.1211 704.08531 1115.2649 707.71289 1113.4609 C 711.24787 1111.703 714.51493 1109.8681 717.01562 1108.2734 C 719.51632 1106.6788 721.25068 1105.3244 721.7168 1104.5312 C 722.28088 1103.5714 722.53782 1101.6936 722.48633 1098.7285 C 722.43484 1095.7635 722.07493 1091.7111 721.40234 1086.4023 C 721.28218 1080.2329 720.69587 1074.0562 720.18359 1067.8691 C 719.67131 1061.6821 719.23306 1055.4846 719.4082 1049.2754 C 719.88353 1032.4242 720.84922 1017.7369 721.94727 1004.6133 C 723.04532 991.4897 724.27573 979.92982 725.2793 969.33398 C 727.60631 943.88497 732.05202 918.79268 718.49219 897.44336 C 718.48986 897.43969 718.48866 897.43531 718.48633 897.43164 z " />
  </g>
</svg>
