<?xml version="1.0" encoding="UTF-8" standalone="no"?>
<!-- Created with Inkscape (http://www.inkscape.org/) -->

<svg
   version="1.1"
   id="svg1"
   width="912"
   height="1226.6667"
   viewBox="0 0 912 1226.6667"
   sodipodi:docname="Arousaland_little_princess_midJump.svg"
   inkscape:version="1.3 (0e150ed, 2023-07-21)"
   xmlns:inkscape="http://www.inkscape.org/namespaces/inkscape"
   xmlns:sodipodi="http://sodipodi.sourceforge.net/DTD/sodipodi-0.dtd"
   xmlns="http://www.w3.org/2000/svg"
   xmlns:svg="http://www.w3.org/2000/svg">
  <defs
     id="defs1" />
  <sodipodi:namedview
     id="namedview1"
     pagecolor="#ffffff"
     bordercolor="#666666"
     borderopacity="1.0"
     inkscape:showpageshadow="2"
     inkscape:pageopacity="0.0"
     inkscape:pagecheckerboard="0"
     inkscape:deskcolor="#d1d1d1"
     inkscape:zoom="1.3008909"
     inkscape:cx="484.66787"
     inkscape:cy="535.01798"
     inkscape:window-width="1656"
     inkscape:window-height="948"
     inkscape:window-x="0"
     inkscape:window-y="25"
     inkscape:window-maximized="0"
     inkscape:current-layer="g1" />
  <g
     inkscape:groupmode="layer"
     inkscape:label="Image"
     id="g1">
    <path
       style="fill:#f5d3d6"
       d="m 336.8125,657.53906 c -1.69351,0.66626 -3.18569,1.77463 -4.75322,2.69457 -10.11911,6.33009 -19.97749,13.06579 -30.12858,19.34651 -19.15775,11.9924 -38.97068,23.10229 -59.28828,33.08412 -11.0631,5.47121 -22.34878,10.61346 -33.68433,15.63215 -13.46916,6.0205 -26.90365,12.15877 -39.90529,19.1436 -7.45787,4.07615 -14.87705,8.37527 -21.36942,13.90386 -4.84235,4.09057 -8.94537,9.25314 -10.97882,15.31728 -1.2952,3.89052 -1.86942,8.27349 -0.40372,12.20033 1.55589,3.67166 4.47348,6.60192 7.64447,8.93344 2.54284,1.86351 5.53538,3.11932 8.68266,3.4427 5.96736,0.66223 11.96868,-0.25081 17.84153,-1.27717 11.52733,-2.15778 22.81675,-5.39306 34.05461,-8.70943 18.59382,-5.55802 37.05588,-11.56444 55.33497,-18.08615 7.44094,-2.63571 14.78155,-5.54086 22.07938,-8.54782 0.83985,-0.38466 1.79119,-0.64071 2.56123,-1.10572 7.28069,-12.47937 14.68093,-24.89013 21.65409,-37.54557 9.37051,-16.98041 18.49689,-34.10378 27.01481,-51.53014 2.05237,-4.34125 4.22404,-8.64741 5.81593,-13.18548 0.36056,-0.97685 0.37068,-2.02357 0.47056,-3.04702 -0.69853,-0.24747 -1.38509,-0.66133 -2.09102,-0.80527 -0.18385,0.0471 -0.36771,0.0941 -0.55156,0.14121 z"
       id="path11" />
    <path
       style="fill:#f5d3d6"
       d="m 625.33398,654.53125 c -0.6613,0.0396 -1.13914,0.3245 -1.34375,0.97461 -0.68166,1.28374 -0.11272,2.78268 0.0903,4.12703 1.7015,7.57097 3.9454,15.00678 6.15505,22.44139 3.95124,13.15407 8.35568,26.17223 13.27806,38.99503 4.46951,11.67517 9.12792,23.28811 14.37864,34.63683 1.43427,2.94371 2.75511,5.98236 4.67806,8.64933 1.75623,2.0001 4.34681,2.9553 6.74797,3.94127 7.0258,2.59744 14.33287,4.31976 21.59718,6.10023 20.22555,4.81103 40.63705,8.72254 60.93068,13.16778 10.43311,2.26502 20.874,4.57673 31.26028,7.11388 7.64543,1.71832 15.44132,3.15364 23.30798,3.00355 4.86529,-0.14533 10.00226,-0.94672 13.9927,-3.93756 3.28872,-2.40425 5.12187,-6.37482 5.473,-10.37039 0.55455,-4.88243 -0.69965,-9.86008 -3.19709,-14.06255 -3.46977,-5.90191 -8.50244,-10.67405 -13.60878,-15.15025 -11.51834,-9.98009 -25.17964,-17.06258 -39.05201,-23.16582 -8.88994,-3.88621 -17.93757,-7.39938 -26.81054,-11.32712 -13.28227,-5.79188 -26.32939,-11.9785 -39.17398,-18.71015 -10.83945,-5.66778 -21.61816,-11.77796 -32.09,-18.11522 -9.60234,-5.78169 -18.9998,-11.89248 -28.38287,-18.02063 -5.21482,-3.31784 -10.3934,-6.71088 -15.81678,-9.68187 -0.73841,-0.33376 -1.5827,-0.86632 -2.41407,-0.60937 z"
       id="path10" />
    <path
       style="fill:#f5d3d6"
       d="m 503.81836,504.86328 c 3.19543,0.53636 6.18739,2.65135 7.56517,5.61519 0.749,1.55576 0.75315,3.59551 -0.53593,4.8767 -2.64771,2.99284 -6.03258,5.20988 -9.36813,7.3589 -5.86702,3.61666 -12.07019,6.76819 -18.63898,8.89592 -3.77557,1.16771 -7.67055,1.90666 -11.58072,2.45056 -1.39145,0.19568 -3.01939,0.37406 -4.50782,0.51562 -6.44171,0.57887 -12.94238,0.66887 -19.38281,0.0234 -0.64908,-0.0675 -1.62158,-0.183 -2.39109,-0.29219 -6.4349,-0.88169 -12.58113,-3.17215 -18.4938,-5.78386 -3.90011,-1.81622 -7.83412,-3.72216 -11.17566,-6.47083 -1.89256,-1.42728 -2.41097,-4.06722 -1.7475,-6.2564 0.88737,-3.13279 3.40321,-6.01958 6.69086,-6.6518 2.02569,-0.37534 3.80207,0.89425 5.62487,1.54142 6.50001,2.63083 12.86178,5.71231 19.69329,7.41606 8.29286,2.20729 17.11004,2.44033 25.48653,0.54252 9.81599,-2.16735 18.88485,-6.75869 27.46338,-11.87665 1.64099,-0.86211 3.36997,-2.01442 5.29834,-1.9046 z"
       id="path4" />
    <path
       style="fill:#f5d3d6"
       d="m 303.62891,447.41211 c 2.47708,0.18891 4.79327,1.83107 5.65115,4.18574 0.78001,1.70583 0.96137,3.69315 0.26276,5.45856 -0.56797,1.82205 -1.80965,3.41568 -3.52188,4.29072 -2.8977,1.66715 -6.86023,0.82706 -8.91374,-1.78498 -2.15575,-2.62658 -2.50684,-6.87991 -0.15408,-9.50356 1.64316,-1.86916 4.20193,-2.86458 6.67579,-2.64648 z"
       id="path3" />
    <path
       style="fill:#f5d3d6"
       d="m 628.00977,443.65625 c 2.98118,0.19204 5.69903,2.38333 6.42773,5.29492 1.03484,3.6881 -1.02299,8.01593 -4.67688,9.31861 -1.19993,0.50803 -2.56079,1.32856 -3.86414,0.65405 -1.79787,-0.76819 -3.72768,-1.6126 -4.76229,-3.37757 -1.8357,-2.82223 -1.91849,-6.9685 0.54925,-9.45605 1.58151,-1.74291 3.99014,-2.63706 6.32633,-2.43396 z"
       id="path1" />
    <path
       style="fill:#f5d3d6"
       d="m 347.96484,356.69727 c -1.50448,0.34578 -2.47827,1.70243 -3.52661,2.73533 -4.31269,4.62055 -7.83988,9.89577 -12.08164,14.57818 -7.88438,8.89336 -16.45816,17.17834 -25.59606,24.77719 -4.1039,3.39809 -8.38029,6.60163 -12.9718,9.31618 -8.67679,5.27007 -17.74405,10.10937 -26.89313,14.62503 -4.77699,2.39833 -9.55446,4.79572 -14.33115,7.19465 -1.39571,4.09472 -2.45978,8.31573 -4.23791,12.27016 -2.78938,6.25782 -7.52953,11.66024 -13.52307,15.01867 -3.91428,2.2816 -8.28696,3.5939 -12.67437,4.61599 -1.92324,0.48617 -3.84659,0.97188 -5.76972,1.45846 -1.12429,4.54695 -2.44575,9.04797 -3.40411,13.63391 -1.50316,7.74434 -2.38254,15.60167 -2.79126,23.47748 -0.23233,3.64516 -0.46651,7.29021 -0.69721,10.93548 7.94465,0.03 15.8905,-0.0651 23.83433,0.0577 5.16157,0.12175 10.31963,0.49696 15.4352,1.2021 0.55592,0.0881 1.45068,0.21856 2.13653,0.3229 10.619,1.69049 21.16333,5.10771 29.98829,11.39239 5.45102,3.84505 10.15419,8.71012 14.03464,14.12346 3.01167,4.23797 4.91165,9.21232 5.63408,14.35289 0.39227,2.55868 0.57836,5.23696 0.65664,7.7277 0.11531,4.35927 0.0791,8.73201 -0.35057,13.0748 -0.0838,0.73045 -0.19668,1.7524 -0.33266,2.59398 -0.96109,6.8585 -3.76808,13.29685 -7.17474,19.27213 -2.31532,4.16749 -4.96557,8.15152 -7.08245,12.42686 -0.29,0.60639 -0.38564,1.27279 -0.0784,1.89113 0.73186,1.39787 2.33161,2.01533 3.61573,2.80943 6.85297,3.6324 13.96479,6.7471 21.05794,9.87465 10.18834,4.41575 20.43971,8.71411 30.9042,12.43852 35.82345,12.33723 73.28717,20.57753 111.23632,21.8546 22.92246,0.87521 45.95891,-0.31988 68.58211,-4.20064 20.36256,-3.47139 40.35361,-8.97697 59.7759,-15.98214 14.98472,-5.47581 29.69041,-11.74557 43.91215,-18.98022 6.45477,-3.28332 12.7585,-6.86655 18.80968,-10.8488 1.97603,-1.26231 3.95173,-2.52515 5.92856,-3.78622 -3.65332,-4.04352 -7.50009,-7.91973 -10.94391,-12.14747 -2.87499,-3.53367 -5.20319,-7.61362 -6.09523,-12.12123 -0.31665,-1.48286 -0.53804,-3.09078 -0.65749,-4.48298 -0.40733,-4.85773 -0.32754,-9.74433 -0.16624,-14.61179 0.11538,-3.3689 0.79376,-6.7223 2.18482,-9.80236 1.95216,-4.55571 4.36552,-9.07222 7.1097,-13.09393 3.22167,-4.76597 7.10298,-9.31935 11.345,-13.3239 1.27059,-1.19808 2.56668,-2.35454 3.81254,-3.38487 2.59135,-2.16713 5.34394,-4.18211 8.13411,-5.96124 3.09444,-1.98934 6.47843,-3.80999 9.75131,-5.26749 4.93939,-2.22498 10.16168,-3.78344 15.49027,-4.74209 2.43155,-0.56906 4.93384,-1.01234 7.21286,-2.06651 1.48245,-0.81964 1.50215,-2.72763 1.36133,-4.20703 -0.54387,-4.82281 -1.92288,-9.50136 -3.21534,-14.16465 -2.89932,-10.02249 -6.3902,-19.86453 -10.20513,-29.57212 -1.07386,-2.941 -2.01151,-5.938 -2.69281,-8.99565 -0.0716,-0.3332 -0.21376,-1.04488 -0.28558,-1.5326 -0.26887,-2.19953 -0.0692,-4.42733 -0.13044,-6.63888 0.15318,-0.76778 -0.0715,-1.18176 -0.89806,-1.03217 -8.74568,-0.63263 -17.52081,-0.96082 -26.22694,-2.05221 -5.82687,-0.72197 -11.80586,-1.78188 -17.56939,-3.243 -1.71096,-0.43278 -3.29123,-0.87707 -5.01767,-1.38204 -10.19606,-3.0676 -20.00299,-7.40583 -29.20784,-12.74946 -12.28515,-7.16961 -23.1203,-16.66695 -32.32057,-27.48433 -5.3358,-6.20639 -10.08393,-12.88448 -14.65503,-19.66532 -2.00239,-2.92286 -4.00317,-5.84683 -6.00684,-8.76882 -6.41477,3.16083 -12.76931,6.4459 -19.23091,9.51041 -13.84145,6.42321 -28.77188,10.41661 -43.93943,12.00753 -5.0906,0.54788 -10.21935,0.84802 -15.28527,0.94053 -15.46673,0.2607 -30.91754,-1.27071 -46.1731,-3.73259 -5.38734,-0.89857 -10.82924,-2.00154 -16.0959,-3.17705 -13.69583,-3.12537 -27.27073,-6.88754 -40.44107,-11.79741 -6.48358,-2.48365 -12.88702,-5.19612 -19.49448,-7.34126 -0.47749,-0.10188 -0.98466,-0.30007 -1.47266,-0.16992 z"
       id="path8" />
    <path
       id="path7"
       style="fill:#a3d1cd"
       d="m 558.75781,178.61328 c -15.41415,0.47473 -30.36682,5.71662 -43.63535,13.38026 -3.44839,2.07536 -7.08997,3.99182 -9.93105,6.89709 -3.11747,3.234 -4.08914,7.7631 -6.18946,11.60742 -0.80749,1.43648 -1.92396,3.18997 -3.78939,3.1442 -4.96744,0.0701 -9.91753,-0.50934 -14.85087,-1.02558 -11.02097,-1.39422 -22.06504,-2.66177 -33.15297,-3.37976 -9.62707,-0.45238 -19.27114,-0.005 -28.88108,0.60588 -10.93152,0.7656 -21.86106,1.82118 -32.65967,3.71776 -7.28908,1.40312 -14.54107,3.03641 -21.89208,4.09749 l -3.72706,0.49821 c -5.97819,-8.17489 -11.9553,-16.35057 -17.9336,-24.52539 -11.48301,0.70038 -22.98611,1.18745 -34.42522,2.45795 -9.95098,1.09507 -19.90213,2.38344 -29.68866,4.5267 -11.9062,2.61606 -23.00752,8.48826 -32.20158,16.44905 -6.37417,5.5648 -11.87311,12.32148 -15.11809,20.19301 -1.59737,3.53099 -2.34106,7.3837 -2.50732,11.24127 -0.38668,6.77684 0.1051,13.58609 -0.54617,20.34942 -0.22608,1.38904 -0.29771,3.07273 -1.48366,4.01893 -2.3137,1.17569 -4.95178,1.45226 -7.47517,1.91027 -8.41281,1.24812 -16.90796,1.81979 -25.33157,2.98592 -13.06413,1.73098 -26.15465,3.96051 -38.63903,8.29233 -9.43846,3.27019 -18.42128,8.08104 -25.91896,14.73012 -7.43853,6.54141 -13.75385,14.52444 -17.58104,23.71162 -2.26632,5.47079 -3.97413,11.2257 -4.58124,17.13105 -0.7177,6.78217 0.58414,13.63671 2.99985,19.97065 1.46122,4.11047 3.76938,7.94165 4.55505,12.27327 0.32117,1.5827 -0.0979,3.34751 -1.39508,4.38735 -2.37837,1.99556 -5.39435,2.98772 -8.26878,4.03627 -6.898837,2.33528 -13.961771,4.08837 -20.888255,6.33981 -12.935781,4.12712 -25.806004,8.88647 -37.430458,16.00542 -7.245219,4.48508 -13.986228,9.88227 -19.579409,16.33235 -4.817928,5.61256 -8.728523,12.3554 -9.591273,19.81248 -0.788186,6.26245 0.944827,12.67692 4.323109,17.96042 3.440161,5.39219 8.205471,9.8522 13.467369,13.43981 6.731796,4.40753 13.83718,8.21941 21.050764,11.77234 5.175599,2.53419 10.487464,4.87272 15.286077,8.09406 1.538911,1.14486 3.397544,2.43323 3.678868,4.48046 0.07591,1.71442 -0.572136,3.40749 -1.424961,4.86915 -1.402247,2.18091 -4.157551,2.74412 -6.555717,3.025 -3.897453,0.43331 -7.836942,0.12368 -11.734733,0.58196 -7.579551,0.73048 -15.220294,2.63356 -21.723222,6.71726 -4.444977,2.80701 -8.347514,6.97793 -9.605469,12.20508 -0.709191,2.79792 -0.595444,5.82635 0.601066,8.47748 1.990218,4.61924 5.455148,8.40509 9.037277,11.8547 6.852676,6.43135 14.729455,11.69185 22.947896,16.20984 8.249075,4.4787 16.942152,8.23736 26.03815,10.61374 8.972771,2.1212 18.266961,2.38254 27.445031,2.07613 3.7683,-0.13089 7.59501,-0.73979 10.96557,-2.51505 4.7896,-2.29713 8.93946,-5.90064 11.81662,-10.37268 2.75238,-4.11992 4.50182,-8.7855 6.20726,-13.4061 1.1736,-2.80854 2.46319,-5.75036 4.81914,-7.77691 1.17529,-1.06062 2.94569,-1.29824 4.35285,-0.56515 2.81666,1.3785 4.81833,3.92956 6.66964,6.37895 2.72326,3.73681 4.85969,7.86076 7.61629,11.57707 3.73369,5.19322 7.88123,10.18674 12.93998,14.14494 4.61295,3.65846 10.50845,5.33697 16.31165,5.72346 3.42621,0.16016 7.08855,-0.0268 10.10778,-1.82544 2.62032,-1.67441 5.32259,-3.84906 6.02391,-7.04349 0.75672,-3.48449 -0.49005,-6.98329 -1.64013,-10.23561 -1.94188,-5.07766 -4.25871,-9.99295 -6.01659,-15.14732 -1.91354,-5.40033 -3.54143,-11.06415 -4.72191,-16.74278 -0.79501,-3.82091 -1.43078,-7.85454 -1.82772,-11.8053 -0.18331,-1.80563 -0.34014,-3.81422 -0.43087,-5.65052 -0.19718,-3.75693 -0.18739,-7.72107 -0.0148,-11.32933 0.41586,-8.72994 1.81121,-17.39613 3.90039,-25.87696 0.19097,-0.75954 0.46154,-1.80889 0.68308,-2.67972 1.34002,-4.84481 2.64593,-9.73008 4.64608,-14.35318 1.0745,-2.4056 2.59641,-5.00445 5.29193,-5.79327 2.93488,-0.87051 6.03843,-0.31035 9.02875,-0.81594 5.68814,-0.68687 11.4196,-3.14088 14.98883,-7.77 2.70693,-3.4363 3.87327,-7.87537 3.76781,-12.20581 0.0683,-2.49322 -0.0415,-5.31494 1.67164,-7.3352 2.00442,-2.13686 4.79906,-3.25691 7.41166,-4.4551 6.05774,-2.59276 12.25163,-4.86193 18.23733,-7.62557 9.22291,-4.13643 18.03981,-9.1737 26.25685,-15.06264 4.67631,-3.26061 9.12754,-6.83318 13.35263,-10.65951 7.583,-6.86977 14.83233,-14.13634 21.39455,-21.99394 3.28819,-3.84759 5.89823,-8.19601 8.71496,-12.38464 0.68365,-0.56584 -0.44057,-0.8071 -0.76905,-1.19123 -3.51611,-2.58397 -7.13237,-5.05911 -10.29291,-8.08599 -6.23475,-5.791 -12.02467,-12.07055 -17.265,-18.77576 -3.83332,-4.87456 -6.6255,-10.47305 -8.96058,-16.1916 -2.88457,-7.30151 -4.96898,-15.05097 -4.98406,-22.94735 -0.0378,-1.42926 0.45968,-2.86027 1.53191,-3.8351 1.76678,-1.84766 4.44973,-2.45553 6.92093,-2.53962 1.23887,0.024 2.65882,0.0756 3.61875,0.95508 1.32675,2.66853 2.10688,5.57304 2.92487,8.42872 2.39403,9.45374 6.02399,18.67023 11.40928,26.83744 6.43609,9.91315 15.33677,18.06981 25.32642,24.31329 8.13572,5.11589 16.93439,9.06702 25.78726,12.75816 16.4316,6.69692 33.42294,12.02854 50.7337,15.92879 4.95168,1.18674 9.99503,1.93683 15.06279,2.40339 12.80499,1.19985 25.67824,1.55086 38.53536,1.46562 8.07421,-0.11896 16.17366,-0.30533 24.18704,-1.37691 7.53238,-1.1918 14.93936,-3.20659 22.04385,-5.98001 8.5553,-3.32915 16.56197,-7.93837 24.03376,-13.24831 3.11019,-2.05301 6.19457,-4.30725 9.78066,-5.45298 1.58052,-0.5257 3.41158,-0.26914 4.6623,0.87511 2.4572,2.15384 4.00347,5.10934 5.61002,7.90383 2.63846,4.88112 5.05794,9.88451 7.98399,14.60572 7.5837,12.5765 17.37961,23.91483 29.24893,32.6232 13.03937,9.66571 28.27637,16.03435 43.95857,19.96691 8.93886,2.07815 18.14132,2.7351 27.29477,2.94072 6.32732,0.10628 12.7551,-0.0979 19.00237,-0.62746 2.35073,-0.1246 4.83223,-0.50528 7.08853,0.36094 1.91677,0.89741 2.55753,3.12388 3.17399,4.97751 1.23474,4.25122 1.86099,8.6563 3.20389,12.88038 2.93846,10.01683 8.01324,19.53799 15.45215,26.93849 6.34045,6.39553 14.23195,11.08894 22.59817,14.3261 3.23673,1.34308 6.49151,2.74621 9.40124,4.71971 2.26501,1.86282 2.38642,5.27464 1.31054,7.8125 -0.87465,2.08926 -2.68815,4.07616 -5.04317,4.32834 -3.24381,0.11456 -6.39603,-0.91418 -9.43289,-1.94208 -2.50131,-0.88854 -4.93919,-1.94835 -7.32276,-3.11478 -1.02426,-0.51079 -2.26458,-1.1461 -3.34977,-1.75267 -3.56561,-1.95128 -6.83346,-4.23126 -10.29473,-6.42885 -2.15789,-1.39507 -4.3163,-2.78933 -6.47464,-4.18371 0.85251,4.35114 1.82366,8.8237 2.56445,13.10742 0.45212,2.68277 0.83655,5.37722 1.14952,8.01363 1.18891,10.14523 1.61412,20.26544 1.17739,30.46846 -0.35315,6.82166 -0.94648,13.70486 -2.88551,20.28354 -2.2991,7.03578 -5.45918,13.75951 -8.86232,20.3211 -1.98429,3.76634 -4.13173,7.46146 -6.73591,10.83739 -0.90658,1.40238 -2.05346,2.74982 -2.45307,4.40113 -0.28095,1.43579 1.06031,2.69401 2.44708,2.72662 1.79682,0.11378 3.48331,-0.66452 5.22532,-0.97765 0.63566,-0.13504 1.54296,-0.34788 2.19623,-0.48414 3.75348,-0.65119 7.54667,-1.93938 10.36906,-4.59766 2.43472,-2.19985 3.88547,-5.45259 3.74526,-8.74633 0.005,-1.90549 0.81042,-3.87603 2.49609,-4.88672 3.23817,-2.00654 7.12824,-2.39567 10.79693,-3.06708 9.36682,-1.6392 18.35331,-5.63397 25.63782,-11.77887 7.72555,-6.42694 13.4701,-14.92342 17.73308,-23.95668 1.77849,-3.52004 3.50516,-7.15616 6.15032,-10.12366 1.09774,-1.27422 2.79879,-2.33484 4.53341,-1.78855 2.75036,0.82711 4.92983,2.83425 7.071,4.65906 3.34856,3.09503 6.64109,6.33104 10.61242,8.63597 4.4996,2.75074 9.79031,3.96878 15.02999,4.02901 6.44924,0.14653 12.78211,-1.47745 18.88837,-3.39921 6.79153,-2.23876 13.40843,-5.04246 19.68449,-8.47421 12.12113,-6.72303 22.47461,-16.83838 28.82656,-29.21515 6.35043,-12.25176 8.61132,-26.58909 6.21162,-40.18859 -2.09054,-12.14337 -6.93257,-23.65244 -12.91856,-34.3634 -4.58927,-8.22825 -10.04048,-15.93779 -15.82695,-23.36064 -3.82715,-4.89471 -7.64446,-9.8451 -12.15658,-14.13789 -2.10154,-1.89534 -4.47395,-3.91108 -7.41287,-4.15843 -1.92942,-0.0734 -3.66663,-1.19119 -5.07481,-2.43533 -1.10072,-1.00548 -2.11474,-2.26516 -2.1577,-3.82604 -0.31704,-3.8068 0.13697,-7.62449 0.26986,-11.43118 0.24056,-4.90752 0.59933,-10.01198 -1.19953,-14.69549 -3.17193,-8.44382 -8.16485,-16.30051 -15.00314,-22.24479 -7.9731,-7.03354 -18.05019,-11.26774 -28.34955,-13.54064 -13.08865,-2.8878 -26.61107,-3.0618 -39.93798,-2.24953 -7.66138,0.49141 -15.26946,1.20715 -22.95117,1.40429 -1.62581,-0.063 -3.39054,0.15463 -4.88477,-0.61328 -1.10394,-0.80025 -2.05913,-1.95298 -2.10606,-3.37604 -0.31627,-3.86246 0.12205,-7.73659 0.34654,-11.59326 0.31602,-5.16717 1.00649,-10.3422 0.65997,-15.52494 -0.29971,-4.1049 -1.69234,-8.04394 -3.33967,-11.784 -2.89893,-6.05145 -7.07246,-11.41694 -11.70726,-16.23543 -3.60423,-3.70045 -7.63509,-7.03389 -12.21636,-9.45785 -5.36687,-3.08811 -11.13737,-5.58348 -17.2517,-6.71271 -7.83837,-1.49123 -15.84982,-1.59494 -23.80158,-1.77188 -4.06366,-0.0642 -8.23988,-0.13103 -12.23036,-0.26068 -3.04181,-0.11335 -5.99755,-0.2417 -9.00195,-0.5 -1.32601,-0.1236 -2.89034,-0.25978 -4.28208,-0.56742 -0.85499,-0.0815 -1.09251,-1.08015 -1.56546,-1.66138 -2.17414,-3.50437 -3.47328,-7.45158 -5.53076,-11.01858 -3.94017,-7.21817 -8.55895,-14.13784 -14.39168,-19.9741 -8.22845,-8.3708 -18.73305,-14.52478 -30.14257,-17.34946 -6.11842,-1.54686 -12.45536,-2.16793 -18.75933,-1.9818 z"
       sodipodi:nodetypes="sccccccccccccccccccccccccccccccccccccccccccccccccccccccccccccccccccccccccccccccccccccccccccccccccccccccccccccccccccccccccccccccccccccccccccccccccccccccccccccccccccccccccccss" />
    <path
       id="path6"
       style="fill:#d19da1"
       d="m 496.60156,127.23242 c -3.90515,2.79415 -7.9117,5.47324 -11.46332,8.72285 -4.67102,4.08172 -8.56183,8.93165 -12.56988,13.63848 -3.95954,4.44326 -7.86335,9.04356 -12.7129,12.55349 -2.13052,1.4849 -4.85068,2.47273 -7.43824,1.70481 -3.42183,-0.7922 -6.12736,-3.19432 -8.52464,-5.62939 -5.28524,-5.38463 -9.87664,-11.40146 -14.29742,-17.50131 -2.23803,-3.11701 -4.42961,-6.28808 -6.93587,-9.19393 -0.90928,-0.86673 -2.52787,-0.75943 -3.22962,0.31074 -0.49685,0.87069 -0.80033,1.85063 -1.2686,2.747 -2.61102,5.70133 -4.59593,11.66647 -7.25091,17.34843 -0.51793,1.11496 -1.17566,2.4332 -1.78516,3.60938 -3.50376,6.5863 -7.78473,12.98876 -13.78258,17.55745 -4.14199,3.15968 -9.37315,5.14635 -14.63377,4.62889 -3.42993,-0.21968 -6.66103,-1.51559 -9.69463,-3.05358 -8.23516,-3.99683 -15.96584,-8.9244 -23.9785,-13.33212 -2.43502,-1.3782 -4.87003,-2.75642 -7.30505,-4.13463 5.5033,9.85767 10.95669,19.74877 16.94349,29.32441 2.66531,4.30853 5.28114,8.67583 8.35445,12.71123 1.80962,2.03938 4.77283,2.87696 7.39926,2.19104 4.40865,-0.78932 8.80267,-1.66255 13.23747,-2.29962 12.08492,-1.85151 24.18117,-2.98647 36.38125,-3.56434 10.14312,-0.47097 20.35526,-0.57625 30.5415,-0.21623 8.05553,0.2944 16.28902,0.85709 24.36622,1.81675 3.62498,0.41235 7.32947,0.89612 10.9873,1.34926 2.05735,-7.26626 3.87999,-14.60089 5.27475,-22.02441 2.09867,-10.68877 3.96126,-21.43276 5.26807,-32.24907 0.68902,-6.48513 1.06872,-12.99857 1.59975,-19.498 -1.1608,0.82747 -2.32161,1.65495 -3.48242,2.48242 z m 202.19532,391.72852 c -4.74849,0.51296 -9.58749,0.90078 -14.08648,2.62905 -7.91338,2.84046 -15.07548,7.5173 -21.3567,13.05987 -5.86758,5.27351 -11.07128,11.55837 -13.95728,18.97471 -2.34389,5.9651 -3.00412,12.7073 -1.14671,18.89732 1.93913,6.83511 6.28382,12.6802 11.14656,17.73767 1.06248,1.10758 2.12498,2.21514 3.18771,3.32247 7.21024,-6.46754 14.26989,-13.17212 20.33467,-20.74703 6.47007,-8.16974 11.57404,-17.5082 14.31768,-27.59281 1.91434,-6.79346 2.75571,-13.82269 3.42332,-20.83095 0.20458,-1.90922 0.40916,-3.81843 0.61379,-5.72765 -0.82552,0.0925 -1.65104,0.1849 -2.47656,0.27735 z m -471.06836,7.80859 c -4.72408,0.0146 -9.44051,0.32765 -14.13477,0.84766 1.25467,4.85739 2.77677,9.65816 4.87829,14.22115 3.76727,8.61683 8.13811,17.04887 13.9782,24.46113 9.40761,12.24487 21.1966,22.48073 33.84411,31.25744 1.40017,0.91762 2.84637,1.76271 4.26815,2.64621 2.63223,-2.47833 5.00311,-5.25819 6.76404,-8.42856 4.1948,-7.03219 7.55203,-14.77255 8.30313,-23.00263 0.75627,-7.16795 -0.18106,-14.76121 -3.94412,-21.02193 -4.10716,-6.67981 -10.75441,-11.40641 -17.81877,-14.56358 -11.29628,-5.06775 -23.85799,-6.5883 -36.13826,-6.41689 z"
       sodipodi:nodetypes="cccccccccccccccccccccccccccccccccccccccccccccccccccc" />
    <path
       style="fill:#e06f98"
       d="m 469.47461,695.76953 c -1.59406,0.57332 -2.68724,1.98505 -3.91171,3.08908 -5.55908,5.70182 -10.73249,11.77164 -15.68647,18.00272 -5.28217,6.61835 -9.5922,13.9913 -12.99824,21.73557 -1.6675,3.96778 -3.27392,8.05951 -3.68874,12.37771 -0.167,1.89111 0.15099,4.04873 1.73994,5.29318 2.48536,2.12777 5.39907,3.73554 8.42702,4.95123 2.26639,0.93298 4.84003,0.72565 7.06351,-0.22683 2.295,-0.81324 4.36173,-2.18938 6.0089,-3.98135 3.77191,-4.05294 6.26143,-9.11026 8.25709,-14.22583 1.91275,-4.7009 2.74665,-9.73263 3.70923,-14.68877 1.50851,-8.34721 2.84469,-16.7343 3.69724,-25.17621 0.12204,-1.86804 0.45828,-3.78619 0.0561,-5.63683 -0.19313,-0.6734 -0.6346,-1.26382 -1.32342,-1.47225 -0.38878,-0.20954 -0.93296,-0.14317 -1.35041,-0.0414 z"
       id="path59" />
    <path
       style="fill:#e06f98"
       d="m 443.08203,692.7207 c -2.53195,0.88422 -4.94176,2.09624 -7.40252,3.16144 -2.38732,1.08563 -4.72387,2.191 -7.08463,3.19844 -10.92946,4.6072 -22.18707,8.39593 -33.53135,11.83895 -4.13456,1.23224 -8.35514,2.42019 -12.46719,3.45359 -3.44441,0.85861 -6.971,1.65468 -10.40453,2.18643 -6.97674,1.09436 -14.10587,1.42319 -21.12931,0.58107 -0.98908,-0.1246 -2.23451,-0.30424 -3.31646,-0.50586 -3.43012,-0.56509 -6.71411,-1.72228 -9.99649,-2.8273 -1.55358,-0.44631 -3.10676,-1.08052 -4.7295,-1.147 -1.5666,0.26188 -2.33931,1.83565 -3.20572,2.99349 -4.12864,6.25548 -7.41482,13.00883 -11.14399,19.50007 -18.37365,32.68996 -39.01816,63.99523 -60.55156,94.66385 -16.85495,24.00051 -34.34292,47.54765 -52.02388,70.94371 -4.00878,5.32496 -8.01846,10.64925 -12.02654,15.97475 7.30213,1.32318 14.60958,2.50151 21.87124,3.95638 1.91079,0.39852 3.86637,0.84062 5.61899,1.27604 6.01069,1.48614 12.01065,3.51502 17.67383,5.80078 5.74165,2.31669 11.29082,4.86352 16.88831,7.54611 18.69047,9.01044 37.06307,18.99636 55.59791,28.46913 16.66629,8.50313 33.43771,16.84546 50.69799,24.08736 12.38072,5.2054 25.08404,9.66086 38.0718,13.09527 10.31098,2.7305 20.7249,5.1599 31.2909,6.6717 5.24433,0.7401 10.56038,0.5801 15.84202,0.5684 11.86609,-0.2007 23.73265,-0.7763 35.54467,-1.9419 6.36078,-0.607 12.61183,-1.9775 18.86348,-3.2511 23.89635,-5.03711 47.12012,-12.7428 70.13027,-20.82435 25.32275,-8.87757 50.3497,-18.57146 75.66835,-27.46163 13.67806,-4.78842 27.40428,-9.42481 41.36046,-13.41865 5.15997,-1.47423 10.5205,-2.89852 15.73867,-4.1377 10.44302,-2.52561 21.05171,-4.39041 31.65817,-5.92819 4.49952,-0.68029 8.99904,-1.36059 13.49856,-2.04086 -4.5768,-4.89411 -9.28412,-9.66809 -13.74918,-14.66532 -7.32188,-8.38784 -14.03299,-17.17797 -20.67269,-26.1003 -12.24075,-16.60857 -23.9629,-33.66421 -34.96206,-51.16828 -6.75763,-10.71289 -13.02575,-21.72995 -18.8433,-32.9804 -8.53061,-16.43524 -16.48154,-33.33359 -23.85356,-50.32095 -5.7114,-13.19505 -11.13418,-26.54385 -15.91863,-40.13466 -1.52956,-4.36035 -2.92492,-8.81909 -5.21053,-12.8577 -0.57962,-1.14785 -1.74229,-1.88267 -3.02247,-1.94426 -4.10088,-0.38426 -8.08952,0.91551 -12.14229,1.28445 -5.95701,0.70443 -11.95173,1.03327 -17.9456,1.20969 -1.38973,0.0203 -3.0148,0.0724 -4.49646,0.0734 -4.05603,0.0397 -8.11286,-0.0262 -12.16565,-0.19256 -0.77953,-0.0458 -1.86419,-0.0998 -2.76089,-0.14874 -6.79907,-0.40542 -13.5418,-1.48035 -20.36801,-1.65399 -0.82194,-0.0192 -1.79942,0.11846 -2.33968,0.76079 -0.60229,0.81013 -0.5122,1.8557 -0.16181,2.7513 2.37987,6.31595 5.79566,12.17025 8.52118,18.33478 0.75004,1.63648 1.44136,3.24497 2.09554,4.85234 2.48639,6.07281 4.3392,12.45183 4.91602,19.00782 0.0376,0.4232 0.096,1.07482 0.12409,1.56132 0.11139,1.58364 0.16181,3.04292 0.1759,4.66561 -0.0488,3.50554 0.15973,7.05594 -0.50702,10.51721 -0.50757,2.3653 -2.08356,4.28638 -3.56641,6.12304 -0.34587,0.41519 -0.94443,1.06552 -1.4222,1.53917 -2.02839,2.00312 -4.23885,4.08059 -7.10666,4.73818 -3.93281,1.01642 -8.12639,1.06162 -12.08638,0.16406 -2.50897,-0.59885 -4.64904,-2.1153 -6.95034,-3.21304 -0.62658,-0.32678 -1.25316,-0.65355 -1.87973,-0.98032 -0.47381,5.66837 -0.88107,11.44271 -1.4043,17.02149 -0.79292,7.88365 -1.97383,15.76671 -3.83701,23.52074 -1.21047,4.79448 -2.51866,9.6434 -4.90577,14.00607 -0.77309,1.44031 -1.8918,2.8229 -3.54414,3.25086 -2.89456,0.86316 -6.31842,0.38879 -8.64539,-1.61367 -0.92399,-0.84901 -1.89262,-1.903 -1.763,-3.2601 0.0188,-1.96442 0.57737,-4.04954 0.96289,-5.84531 1.3903,-5.84356 3.27009,-11.72632 4.37715,-17.71143 3.75519,-19.60536 2.51318,-40.16993 -3.68872,-59.1508 -1.82705,-5.67082 -4.27927,-11.10893 -6.85607,-16.47179 -1.57483,-3.22852 -3.03581,-6.52471 -4.83673,-9.63479 -0.5738,-0.97844 -1.90116,-1.3256 -2.88621,-0.77627 -1.43361,0.95396 -1.60735,2.85463 -1.98783,4.39678 -0.5969,3.10466 -0.79611,6.27486 -1.54274,9.3537 -1.59898,7.41654 -3.76293,14.69627 -6.13579,21.89825 -1.59884,4.94765 -2.95516,10.02018 -3.25335,15.23389 -0.45565,7.0429 -0.30277,14.10708 -0.3353,21.1605 0.0657,7.20878 -0.0992,14.50325 1.41594,21.59243 1.1962,5.27759 2.83184,10.45297 4.71922,15.5227 4.27532,11.21404 9.88581,21.92066 16.63152,31.84464 2.83437,4.13674 6.04964,8.05438 8.29102,12.56445 0.25559,0.85549 -0.19621,1.77681 -0.4446,2.59861 -1.18268,2.93918 -3.42704,5.77655 -6.6179,6.58694 -1.30377,0.0848 -2.44354,-0.75857 -3.52574,-1.38014 -2.94179,-2.07855 -5.1851,-4.9654 -7.3735,-7.78674 -5.71833,-7.68077 -10.4233,-16.06805 -14.64766,-24.64649 -3.99812,-8.29451 -7.60463,-16.83902 -9.87498,-25.78233 -1.99054,-8.35558 -3.40161,-16.85148 -4.20295,-25.40365 -0.44578,-3.75713 -0.77907,-7.54075 -1.54503,-11.2492 -0.17294,-0.6519 -0.4722,-1.2986 -1.14391,-1.54786 -1.40083,-0.64586 -2.99241,-0.0524 -4.41201,0.26753 -1.70622,0.52967 -3.40796,1.11272 -5.20391,1.25154 -5.30149,0.57108 -10.91632,0.36842 -15.75498,-2.10321 -5.59215,-2.72952 -9.57983,-8.06413 -11.44095,-13.91924 -1.48456,-4.53484 -1.86479,-9.37786 -1.48181,-14.11818 0.047,-0.44767 0.0901,-1.03779 0.1614,-1.58611 0.60285,-5.34845 2.31012,-10.64476 4.38157,-15.49787 3.64049,-8.4627 8.22985,-16.51904 13.60599,-23.99848 3.25261,-4.52355 7.1221,-8.57951 10.228,-13.21051 0.39926,-0.62565 0.28334,-1.37643 0.35547,-2.08203 -0.58106,-0.36583 -1.11318,-0.96648 -1.72227,-1.19552 -0.27292,0.0652 -0.54583,0.13035 -0.81875,0.19552 z"
       id="path58" />
    <path
       style="fill:#e06f98"
       d="m 501.01758,686.16797 c -1.4318,-0.0243 -2.75398,1.22646 -2.62751,2.68983 0.15751,2.31235 1.17669,4.45536 1.9656,6.60457 3.66479,8.9138 7.99619,17.53423 12.37089,26.11575 4.75552,9.13834 9.59527,18.25077 15.1115,26.95809 1.35868,2.01014 2.6232,4.14015 4.39827,5.81731 2.3253,1.90718 5.63018,2.92902 8.55273,1.92968 1.73409,-0.66436 2.35575,-2.64179 2.43542,-4.34137 0.27485,-3.76557 0.0893,-7.57911 -0.82079,-11.25385 -1.96914,-8.22916 -5.72865,-15.90914 -9.98181,-23.18017 -4.00375,-6.69988 -8.53988,-13.09502 -13.65626,-18.99219 -3.73046,-4.01369 -7.94268,-7.61819 -12.6215,-10.48278 -1.5723,-0.88436 -3.26908,-1.88442 -5.12654,-1.86487 z"
       id="path5" />
    <path
       id="path2"
       style="fill:#1c1c1a"
       d="m 509.56055,101.43164 c -2.37288,-0.15806 -4.93248,0.23547 -7.45703,1.19531 -7.33799,2.7899 -23.30783,14.54236 -34.00782,25.02735 -6.18061,6.05642 -11.94983,11.01172 -12.82031,11.01172 -3.23747,0 -8.34253,-5.49708 -19.06836,-20.53516 -11.28446,-15.82132 -14.01756,-17.97094 -20.71094,-16.29102 -4.22472,1.06034 -6.3632,4.64583 -10.83203,18.16016 -7.98279,24.14105 -17.44118,38.66602 -25.17773,38.66602 -1.71075,0 -13.36857,-6.83421 -26.15235,-15.33204 C 340.64726,134.90066 329.3061,127.9302 328.13281,127.8457 320.1543,127.27145 316,130.42044 316,137.04102 c 0,4.57062 7.99066,26.49074 11.51562,31.58984 3.62103,5.23804 2.37466,7.12473 -5.18164,7.84375 -30.79562,2.93039 -37.92703,3.86624 -47.16601,6.19531 -25.79599,6.50295 -46.80477,22.03884 -56.50195,41.7832 -3.65234,7.43651 -5.84662,14.19722 -6.9336,21.36133 -1.8839,12.41649 -1.4318,12.10402 -20.54687,14.16993 -37.8601,4.09181 -65.03237,16.23159 -82.29493,36.76562 -15.25465,18.14561 -21.354069,37.21171 -18.593745,58.11914 0.806238,6.10652 1.213187,11.51192 0.904297,12.01172 -0.3089,0.4998 -5.506465,2.54966 -11.548828,4.55469 C 41.602706,384.0615 15.827832,401.32117 6,420.75586 c -3.7231686,7.36261 -3.9999469,8.92651 -3.9980469,22.57812 0.00175,12.85135 0.390529,15.39673 3.1464844,20.56836 4.0870418,7.66949 14.7889145,18.92392 23.0097655,24.19922 3.57998,2.29727 6.507813,4.40242 6.507813,4.67774 0,0.27531 -2.381984,1.7151 -5.294922,3.20117 -18.660647,9.51995 -26.02285,27.9719 -18.019532,45.16406 8.973327,19.27586 44.362149,42.62406 74.078126,48.875 23.006012,4.83947 41.524752,-0.0522 56.687502,-14.97461 3.93754,-3.87512 7.62177,-7.01055 8.1875,-6.96875 0.56573,0.0418 3.20513,2.93541 5.86523,6.43164 12.08207,15.87984 34.89134,23.12698 50.4961,16.04297 3.29998,-1.49809 9.29215,-2.91519 13.31445,-3.14844 l 7.3125,-0.42382 10.23633,9.63086 c 16.78281,15.78806 45.45482,33.18216 74.80468,45.38281 4.95,2.0577 8.98861,4.10103 8.97461,4.54101 -0.0361,1.13028 -28.29939,19.5302 -47.30859,30.79883 -20.86444,12.36841 -55.71091,29.9382 -76.66602,38.65625 -39.0015,16.226 -56.7544,27.26219 -68.31054,42.4668 -22.02304,28.97605 -5.81384,60.80588 30.97656,60.83008 13.04171,0.009 31.21675,-4.62805 72.82812,-18.58008 17.94298,-6.01618 32.3682,-10.2701 32.05469,-9.45313 -0.85527,2.22881 -20.7532,30.86341 -36.65429,52.74805 -18.03994,24.8283 -38.51615,51.48711 -69.63672,90.66602 -13.68876,17.2333 -25.30548,32.6609 -25.81446,34.2832 -0.93138,2.96863 1.03211,8.21254 3.75586,10.03125 0.80688,0.53877 6.05753,0.9888 11.66797,1 16.2719,0.0326 38.67158,4.59649 61.94141,12.22265 -3.18134,9.08088 -2.5039,19.55238 2.44336,27.87108 1.10859,1.992 1.9599,4.1198 3.20508,6.0391 9.24469,14.7828 17.03771,26.7035 35.79492,31.0898 40.1494,9.3888 92.04586,19.3816 122.04307,27.2396 28.5103,7.4684 27.27437,13.0095 15.08214,29.8981 -3.56793,4.9423 -7.85007,9.1064 -13.50217,14.208 l -3.91601,-5.1152 c -5.06644,-6.6161 -12.07287,-9.5767 -18.80078,-7.9453 -9.3108,2.2577 -12.40323,8.132 -9.02149,17.1387 1.18043,3.1434 3.72199,7.3087 5.64649,9.2558 3.23852,3.2767 3.32789,4.0559 1.22851,10.4688 -1.24755,3.8108 -3.82824,9.5032 -5.73632,12.6484 -3.51667,5.7966 -6.42445,13.6021 -6.85547,18.4043 -2.01333,22.4305 25.22412,40.9058 54.65625,40.4238 9.59246,-0.1571 12.54773,-3.7074 34.81445,-12.3086 34.29876,-13.2489 54.09121,-56.7072 59.07031,-69.998 4.55846,8.2632 35.1583,40.3982 40.40235,45.498 22.59273,21.9712 48.2035,38.2805 83.83593,33.1641 3.83198,-0.5503 9.18101,-2.982 12.08008,-4.4531 6.0558,-3.073 14.28405,-12.1612 16.98633,-18.7617 4.20719,-10.2762 3.04894,-19.3234 -4.0957,-31.9688 -3.71401,-6.5734 -3.85186,-7.521 -1.63477,-11.1875 2.40835,-3.9826 2.62879,-12.2536 0.38867,-14.5117 -0.64481,-0.6505 -1.22192,-4.5265 -1.2832,-8.6153 -0.0613,-4.0888 -1.01281,-8.7602 -2.11328,-10.3808 -2.88545,-4.2494 -9.49328,-7.6136 -13.55274,-6.8985 -3.95839,0.6973 -9.77161,5.9895 -11.98047,10.9083 -0.81303,1.8105 -1.93788,3.1487 -2.5,2.9726 -0.56211,-0.1761 -5.3539,-5.3201 -10.65039,-11.4316 -6.00452,-6.756 -13.87733,-13.1384 -14.86132,-20.8985 -1.6747,-5.2 2.09013,-9.8972 8.54687,-13.5722 25.77173,-17.6336 100.04463,-25.0317 123.21668,-49.7822 10.20388,-12.6921 17.99352,-20.5904 20.90647,-36.47755 25.73395,-9.86662 22.1864,-8.83648 47.8456,-17.88091 19.56076,-4.92672 20.6953,-5.2949 22.77539,-7.375 1.13301,-1.13301 2.0586,-3.91173 2.0586,-6.17578 0,-3.50022 -2.85288,-7.02969 -19.05664,-23.57227 -29.97164,-30.59831 -53.61116,-60.0186 -77.54493,-96.50586 -14.58832,-22.24005 -32.02045,-53.40789 -30.20898,-54.01171 0.65846,-0.21949 5.90931,0.78402 11.66992,2.23046 5.7606,1.44647 21.57398,4.82157 35.14063,7.49805 13.56662,2.67647 34.97062,7.22054 47.5625,10.09961 34.52712,7.89444 49.19127,7.02809 61.6621,-3.64648 8.13498,-6.96325 11.24646,-13.85621 11.35352,-25.14454 0.12141,-12.80097 -5.29562,-23.93195 -16.95312,-34.83593 -10.89656,-10.19221 -22.51976,-16.97112 -48.41993,-28.24024 -41.68979,-18.13917 -75.47838,-35.4671 -105.20507,-53.95507 -13.79855,-8.58176 -41.96973,-28.05737 -41.98633,-29.0254 -0.007,-0.41167 4.93633,-3.50542 10.98633,-6.87695 6.04998,-3.37153 16.20221,-9.83349 22.56054,-14.35937 l 11.56055,-8.22852 15.77344,-0.27539 c 12.96109,-0.22643 17.16989,-0.83192 23.61328,-3.38867 8.36094,-3.31764 17.17869,-10.35599 20.13672,-16.07617 1.31515,-2.54322 3.91157,-4.14399 9.58007,-5.9043 15.80425,-4.90788 31.36306,-16.71067 39.73047,-30.14063 2.05604,-3.29998 3.89878,-6.19323 4.09571,-6.42773 0.19693,-0.23449 2.66896,0.754 5.49414,2.19531 32.86767,16.76785 86.4723,-4.06578 105.67968,-41.07226 6.72166,-12.95046 9.31561,-22.87979 10.28321,-39.36328 0.97529,-16.61456 -1.22751,-26.85241 -9.42774,-43.81641 -7.40695,-15.32297 -15.99481,-28.134 -28.75586,-42.89649 -5.49513,-6.35698 -11.09792,-12.91555 -12.45117,-14.57617 -1.5726,-1.92976 -2.86712,-6.64903 -3.58789,-13.07617 -2.40783,-21.47052 -17.71252,-41.74919 -38.88086,-51.51562 -16.04318,-7.40185 -21.71644,-8.49819 -48.40429,-9.35157 l -24,-0.76757 -0.9961,-9.02344 c -1.98932,-18.0127 -8.97424,-31.72328 -22.57422,-44.31446 -15.30732,-14.17187 -32.8995,-20.41943 -60.8789,-21.61914 l -17.78321,-0.76367 -6.98047,-10.80469 c -12.96013,-20.0673 -32.4564,-34.70288 -52.7871,-39.625 -9.15296,-2.21597 -28.76618,-2.18606 -39.33204,0.0605 -4.39998,0.93558 -12.69077,3.49934 -18.42382,5.69531 -5.73307,2.19598 -10.74728,3.66874 -11.14258,3.27344 -0.3953,-0.3953 0.2745,-7.50497 1.49023,-15.79883 1.21573,-8.29383 2.56876,-22.93364 3.00586,-32.5332 0.78614,-17.26469 0.75988,-17.47711 -2.36523,-19.66601 -1.77969,-1.24655 -3.96502,-1.95718 -6.33789,-2.11524 z m -11.22852,27.12305 c 1.94791,1.94792 -7.36408,57.72793 -10.81445,64.77929 -1.01044,2.06497 -2.62339,3.23575 -4.24024,3.07813 -39.04915,-3.80691 -65.26877,-3.73337 -89.94336,0.25195 -6.96664,1.12522 -15.7503,2.41251 -19.51757,2.86133 l -6.84961,0.81641 -4.78711,-7.48242 c -8.95883,-14.00492 -17.23946,-28.91094 -16.48242,-29.66797 0.41518,-0.41519 5.76553,2.20446 11.89062,5.82226 13.87414,8.19482 19.64055,10.13003 27.84375,9.3418 12.0237,-1.15533 22.04075,-12.62936 30.43164,-34.86133 2.38611,-6.32207 4.74159,-11.48029 5.23633,-11.46289 0.49473,0.0174 3.51942,3.87645 6.7207,8.57422 20.21986,29.67188 28.98716,31.59274 45.71094,10.01758 7.57324,-9.77015 23.19642,-23.67272 24.80078,-22.06836 z m 66.42578,51.53906 c 8.16078,0.24147 15.72338,1.848 22.09766,4.86523 15.54329,7.35736 26.94924,19.14641 35.26367,36.44922 2.79913,5.82515 5.71653,10.70829 6.48438,10.85157 0.76782,0.14328 10.3965,0.32248 21.39648,0.39648 21.43929,0.14433 27.88748,1.29854 41.67188,7.45703 10.60069,4.73612 21.86834,15.79887 26.67773,26.19531 3.8278,8.27456 4.65636,19.45065 2.44727,33.02539 -0.95428,5.86403 -0.75006,6.96906 1.70507,9.1875 2.65705,2.40089 3.69404,2.44039 21.55664,0.80664 47.29721,-4.32586 73.78002,5.1339 87.72657,31.3379 3.17506,5.9656 3.54882,8.09906 3.54882,20.28125 0,15.1479 0.7118,16.69147 8.62891,18.69726 3.56932,0.90429 6.7197,3.74939 13.76172,12.42969 23.60405,29.09533 32.94141,49.71808 32.94141,72.7539 0,19.41177 -6.04866,33.3061 -20.29493,46.61719 -14.50005,13.54825 -33.98332,21.91188 -50.92382,21.85938 -11.29297,-0.035 -18.32512,-2.82245 -24.30469,-9.63281 -5.96845,-6.79769 -9.04624,-8.19347 -13.37891,-6.06641 -3.84144,1.88591 -3.66879,1.62792 -9.99805,14.98633 -8.27412,17.46323 -22.44806,28.17825 -42.26953,31.95508 -5.37451,1.02405 -10.41755,2.50933 -11.20703,3.29882 -0.78949,0.78949 -1.77741,3.9633 -2.19531,7.05469 -0.6043,4.4702 -1.60363,6.11351 -4.87695,8.02344 -5.5207,3.22118 -17.41323,4.94721 -15.73242,2.2832 0.64986,-1.03004 3.34109,-5.17369 5.98046,-9.20703 14.52561,-22.19702 19.04285,-52.14168 12.72071,-84.33398 -0.97211,-4.95 -1.46461,-9 -1.09375,-9 0.37087,0 3.59547,1.87479 7.16601,4.16601 8.15082,5.23038 20.66335,10.42725 25.20313,10.46875 5.83185,0.0533 10.7129,-7.99217 7.96484,-13.12695 -0.77072,-1.44011 -5.56883,-4.19125 -10.79297,-6.1875 -9.15657,-3.49893 -20.12664,-10.99835 -26.19531,-17.90821 -6.69844,-7.6269 -12.47081,-21.10241 -14.43555,-33.70117 -1.34643,-8.6339 -2.30643,-8.96402 -23.67578,-8.11133 -14.45989,0.577 -21.37857,0.26065 -28.99219,-1.32421 C 625.00219,411.87639 605.14742,401.67307 589.13086,386 c -8.59377,-8.40947 -20.69696,-25.66509 -25.29883,-36.06836 -3.21871,-7.27639 -6.87577,-11.26562 -10.33008,-11.26562 -1.37404,0 -7.43177,3.36091 -13.46093,7.46679 -20.72503,14.11385 -35.70731,18.81035 -64.04102,20.07617 -40.44743,1.80702 -81.71081,-7.17063 -121.11719,-26.3496 -14.26886,-6.94463 -17.8225,-9.36605 -26.79492,-18.26563 -11.58167,-11.48764 -17.27791,-21.48315 -21.41992,-37.58594 -1.37957,-5.36329 -3.29313,-10.25006 -4.25391,-10.85937 -3.27849,-2.07919 -7.86517,-1.1524 -11.30078,2.2832 -3.09194,3.09195 -3.34304,4.09463 -2.54101,10.14063 1.24693,9.39995 6.60859,22.97445 12.875,32.59765 5.14528,7.90153 18.51456,21.71867 25.09375,25.9336 4.64266,2.97429 3.18182,6.63207 -7.76563,19.4375 -17.95098,20.99757 -40.1907,36.71608 -66.77539,47.19726 -7.69998,3.03577 -14.678,6.07594 -15.50781,6.75586 -0.82981,0.67993 -1.76028,4.69938 -2.06641,8.93164 -0.92793,12.82848 -6.06907,17.63985 -20.31445,19.00586 C 203.11272,446.48632 202.47259,447.14309 198.01758,462 193.31858,477.67054 192,486.74899 192,503.4082 c 0,17.81902 3.89475,35.21495 11.35742,50.73047 l 4.8086,9.99805 -2.48438,4.26562 c -5.65357,9.70582 -20.6644,8.85662 -32.83398,-1.85546 -3.43904,-3.02717 -9.33849,-10.55184 -13.10938,-16.72266 -7.06935,-11.56858 -9.81649,-13.59761 -16.23633,-11.98633 -1.82612,0.45832 -3.73789,2.35287 -4.52148,4.47852 -0.74684,2.02598 -2.33378,6.43043 -3.52539,9.78711 -4.68356,13.19328 -16.43093,20.42725 -32.78906,20.19336 C 78.981911,571.9582 50.679841,559.59221 32.992188,541.85352 25.496885,534.33658 23.305055,528.24528 25.876953,522.08984 29.83927,512.60668 40.588036,507.61151 60.666016,505.92188 72.488731,504.92694 76,502.96091 76,497.33398 c 0,-4.8537 -2.013631,-6.32871 -21.435547,-15.6914 -19.893665,-9.59011 -29.961068,-17.90229 -34.523437,-28.50781 -3.362248,-7.81577 -3.023258,-14.04575 1.210937,-22.25782 9.451198,-18.33027 33.709706,-32.98304 72.679688,-43.90234 23.449219,-6.57041 25.344579,-8.8382 18.408199,-22.01953 -3.24609,-6.16865 -3.66001,-8.39208 -3.66601,-19.65039 -0.006,-11.67373 0.34665,-13.41243 4.39258,-21.63086 8.16105,-16.57747 21.50162,-28.30688 40.61523,-35.70899 14.41842,-5.58378 28.76956,-8.1824 62.49609,-11.32031 13.39868,-1.24661 14.41802,-2.6862 13.51563,-19.0625 -0.67359,-12.22429 -0.46993,-13.77038 2.73437,-20.76953 1.9042,-4.15932 6.8101,-11.073 10.90235,-15.36328 15.54162,-16.29376 37.96479,-23.36282 79.4414,-25.04688 l 19.43946,-0.78906 7.65429,10.86328 c 4.2108,5.97515 8.77314,11.46164 10.13672,12.19141 1.75891,0.94134 5.70221,0.57405 13.57227,-1.26172 21.16293,-4.93645 33.15923,-6.07342 63.75976,-6.04492 22.38865,0.0208 33.47343,0.62078 43.69336,2.36523 16.0974,2.74769 17.74439,2.24531 21.05664,-6.42773 2.81276,-7.36508 7.02158,-11.06594 19.6211,-17.25195 14.18894,-6.96639 29.45144,-10.35558 43.05273,-9.95313 z m -216.6914,177.24023 c 0.5667,0 5.92926,2.09577 11.91601,4.65821 13.95178,5.9716 33.2757,11.94557 49.35156,15.25781 55.01464,11.33509 97.40426,8.06553 130.2168,-10.04688 4.51916,-2.49453 8.81308,-4.5371 9.54297,-4.5371 0.72989,0 4.81459,5.25131 9.07617,11.66796 9.15009,13.77725 25.75911,30.95167 37.66797,38.95118 19.98075,13.42158 43.59119,20.96066 69.88867,22.3164 l 15.72852,0.8125 -0.7832,3.5586 c -0.53335,2.42833 0.94192,7.97747 4.64257,17.46093 5.80565,14.87777 12.01558,36.00006 12.01758,40.875 7e-4,2.17004 -0.9911,3.18117 -3.66601,3.74219 -12.16842,2.55214 -16.07233,3.78566 -22.89258,7.22852 -23.23373,11.72835 -40.27467,35.6005 -40.49024,56.7207 -0.11763,11.52506 3.40294,20.71089 11.20899,29.25195 l 6.59961,7.22266 -5.71289,3.86523 c -29.00068,19.62377 -83.0275,39.15334 -128.37891,46.4043 -18.77135,3.00125 -67.55864,3.6995 -86.92969,1.24414 -42.5668,-5.3955 -88.46652,-18.82201 -124.09961,-36.30078 -8.26649,-4.0549 -15.25499,-7.74403 -15.52929,-8.19727 -0.2743,-0.45324 1.86561,-4.72356 4.75586,-9.49023 7.8966,-13.02331 10.90789,-24.3446 10.22265,-38.42773 -0.99525,-20.45421 -9.77596,-33.6291 -28.21094,-42.32227 -14.86514,-7.0098 -23.46153,-8.84533 -42.98437,-9.18164 -9.59357,-0.16527 -18.2148,-0.77827 -19.1582,-1.36133 -2.1936,-1.35571 -0.88322,-20.16633 2.38476,-34.22851 2.06585,-8.88934 2.6263,-9.87261 6.24219,-10.95118 18.32011,-5.46464 24.18763,-10.22855 29.79883,-24.19336 2.497,-6.21438 4.82438,-9.87843 6.96289,-10.96289 1.7665,-0.89581 8.91226,-4.30633 15.8789,-7.57812 6.96667,-3.27179 17.44544,-9.13805 23.28711,-13.03711 13.08185,-8.73154 32.68837,-27.27967 42.82032,-40.50781 4.17702,-5.45349 8.05831,-9.91407 8.625,-9.91407 z m 279.6289,79.33204 c -8.22602,0 -12.09845,8.93083 -6.36133,14.66796 1.46667,1.46666 4.16669,2.66602 6,2.66602 1.83334,0 4.53336,-1.19936 6,-2.66602 5.3724,-5.37238 1.79866,-14.66796 -5.63867,-14.66796 z m -325.25976,3.77539 c -2.52331,0.0887 -4.96682,0.90268 -6.06055,2.39843 -2.78952,3.81489 -2.12707,10.71449 1.25586,13.08399 3.89018,2.72479 6.73398,2.62085 10.44336,-0.38281 3.62542,-2.93568 4.10169,-9.93544 0.89453,-13.14258 -1.40784,-1.40785 -4.0099,-2.04572 -6.5332,-1.95703 z M 505,503.97852 c -1.65,-0.0118 -9.10716,3.09319 -16.57227,6.90039 -12.50197,6.37599 -14.45844,6.96951 -24.78906,7.51171 -12.21779,0.64127 -21.29926,-1.3034 -33.43164,-7.15624 -8.26478,-3.98707 -11.16589,-4.05167 -15.12109,-0.33594 -3.66903,3.44686 -4.02644,9.19276 -0.75196,12.07617 4.00381,3.52561 16.05732,9.01868 24.0293,10.95117 10.57542,2.56355 30.76186,2.54489 40.77734,-0.0391 15.85257,-4.08982 34.19336,-15.75961 34.19336,-21.75586 0,-3.67391 -4.55128,-8.12534 -8.33398,-8.15234 z m 193.66602,15.66992 -0.0195,7.17578 c -0.0516,18.78238 -8.2815,37.01697 -24.39062,54.03516 -5.79984,6.12714 -10.93022,11.08944 -11.40039,11.02734 -1.59798,-0.21097 -9.77064,-10.47743 -12.31836,-15.47461 -5.94555,-11.66186 -0.67589,-27.85782 13.19727,-40.55859 8.30109,-7.5996 21.23597,-14.36792 29.60351,-15.49024 z m -469.73633,8.63672 c 14.82396,-0.46321 27.00725,2.10411 38.13867,8.03711 18.14441,9.67087 22.71221,28.20796 12.25976,49.75195 -1.79859,3.70721 -4.69417,8.07891 -6.43554,9.71484 l -3.16602,2.97461 -8.45703,-6.35742 c -18.6541,-14.02255 -31.94631,-30.06125 -40.80664,-49.23828 -6.52101,-14.11389 -6.34554,-14.41997 8.4668,-14.88281 z m 373.64648,119.17968 c 1.03166,1.03167 9.40982,32.99448 8.80664,33.59766 -0.27717,0.27717 -2.80323,1.04324 -5.61133,1.70312 -5.89638,1.38565 -33.24056,2.56183 -41.10546,1.76758 -19.26936,-1.94593 -41.34985,-7.39223 -47.53516,-11.72461 l -2.84766,-1.99414 3.19141,-0.6914 c 1.75544,-0.3804 8.29208,-1.64823 14.52539,-2.81641 15.61815,-2.92698 42.487,-10.38274 57.41211,-15.93164 6.84522,-2.54495 12.76923,-4.30498 13.16406,-3.91016 z m 21.7168,6.98828 c 0.22931,-0.68791 6.70651,3.11231 14.39453,8.44532 33.97701,23.56903 80.51253,48.72894 117.97852,63.78515 21.97722,8.83186 30.94663,13.34525 42.92578,21.60157 16.42908,11.32329 25.74218,23.19299 25.74218,32.80859 0,5.49799 -5.26345,12.62113 -10.71289,14.49805 -7.77597,2.67821 -14.26163,2.12607 -34.62109,-2.94727 -6.96665,-1.73601 -28.86606,-6.48976 -48.66602,-10.56445 -39.31132,-8.09 -63.69557,-14.28094 -66.9746,-17.00196 -5.52377,-4.58373 -27.1348,-61.13276 -37.0293,-96.89257 -1.8994,-6.86462 -3.26642,-13.04451 -3.03711,-13.73243 z m -285.94922,3.44727 c 0.60365,0.60366 -7.99162,20.14781 -14.99609,34.09961 -14.66046,29.20126 -38.65146,69.85864 -42.33594,71.74609 -9.30628,4.76738 -59.09159,21.6329 -89.67774,30.37891 -12.74659,3.64485 -20.50941,5.07594 -29.33398,5.4082 -13.27902,0.49998 -15.70638,-0.1677 -20.85938,-5.72851 -5.54299,-5.98172 -6.01977,-11.31352 -1.78515,-19.96875 6.47273,-13.2298 20.85268,-22.42051 68.60351,-43.84571 48.12155,-21.59151 71.18997,-34.06838 110.6875,-59.86328 10.62213,-6.93705 19.4856,-12.43823 19.69727,-12.22656 z m 20.39258,1.5293 c 0.73639,-0.75649 8.33057,0.39974 19.5664,2.97851 21.84094,5.0128 38.7225,7.92875 52.80469,9.11914 5.67295,0.47954 10.56939,1.28314 10.88086,1.78711 0.6946,1.1239 -29.82992,15.16022 -42.6543,19.61328 -5.13331,1.78248 -14.43465,4.39031 -20.66796,5.79493 -6.23334,1.4046 -14.03204,2.52348 -17.33204,2.48828 -8.17171,-0.0872 -18.66796,-3.43915 -18.66796,-5.96289 0,-2.25108 14.19697,-33.8939 16.07031,-35.81836 z m 141.53906,28.85547 c 0.36667,-0.37823 1.30232,-0.17816 3.11719,0.27734 6.10167,1.53143 10.63394,5.51984 19.21094,16.90234 11.57665,15.36341 18.43321,30.25336 18.9707,41.20118 0.41791,8.51205 0.36214,8.67376 -3.11524,9.07617 -3.94992,0.45711 -6.37219,-2.23972 -14.98437,-16.6875 -6.22427,-10.44183 -21.63503,-42.45527 -22.9043,-47.58008 -0.45916,-1.85393 -0.66159,-2.81122 -0.29492,-3.18945 z M 444,694.51562 c 0,0.55477 -3.30803,5.16009 -7.35156,10.23438 -14.34946,18.00713 -23.39633,41.20455 -21.25977,54.51367 1.84054,11.4651 10.14741,20.29373 21.27735,22.61328 2.19998,0.45849 7.14028,0.0134 10.97851,-0.98828 3.83825,-1.00164 7.28955,-1.51123 7.66797,-1.13281 0.37842,0.37842 0.69036,3.13837 0.69336,6.13281 0.009,8.80233 3.64534,28.70156 7.28125,39.83985 4.04843,12.40201 9.66099,23.86483 17.48047,35.70117 10.39016,15.72755 16.01021,19.12453 21.89844,13.23633 4.25222,-4.25225 3.23897,-8.60399 -4.61914,-19.81836 -9.20827,-13.14117 -17.20095,-29.79605 -20.88086,-43.51368 -4.11583,-15.34233 -4.07371,-42.52881 0.0879,-56.66796 3.4166,-11.6081 7.42713,-27.40731 9.13867,-36 l 1.19531,-6 6.25391,13.08398 c 3.44016,7.19534 7.1215,16.49471 8.17968,20.66602 5.13021,20.22283 4.83274,43.48757 -0.82226,64.44531 -1.51458,5.61311 -2.5525,11.59626 -2.3086,13.29492 0.98674,6.87152 12.58915,8.46416 15.94727,2.18945 3.51291,-6.56391 7.91191,-26.41854 8.7168,-39.3457 0.46801,-7.51665 1.28603,-13.66602 1.81836,-13.66602 0.53234,0 3.12125,0.90002 5.7539,2 6.35964,2.65723 9.61734,2.52205 16.20703,-0.66796 15.75164,-7.62525 15.67826,-30.1146 -0.20117,-61.73243 -3.28107,-6.53302 -5.75654,-12.08721 -5.5,-12.34375 0.25654,-0.25654 4.34477,0.0924 9.08399,0.77735 12.00941,1.73564 39.79018,1.60546 53.06836,-0.25 12.83762,-1.79389 11.9926,-2.35732 16.3789,10.88281 9.95252,30.04176 32.02783,78.93252 49.07617,108.69141 9.28053,16.19967 27.38161,44.23199 37.86719,58.64257 12.07288,16.59206 35.6796,45.76086 37.64649,46.51563 3.30058,1.26656 2.08388,3.48437 -1.91211,3.48437 -6.05504,0 -26.08766,3.68474 -43.50782,8.00391 -22.01253,5.45782 -41.12598,11.81094 -89.33398,29.68945 -65.36271,24.24056 -94.01406,32.9412 -123.33398,37.45506 -54.93752,8.458 -96.36662,-1.4485 -173.33204,-41.44529 -69.52746,-36.13148 -80.5619,-40.90377 -103.75195,-44.86719 -6.09624,-1.04191 -11.39531,-2.2039 -11.77539,-2.58398 -0.38008,-0.38008 9.14563,-13.79218 21.16797,-29.80469 C 268.63217,819.64248 300.60776,771.52529 325.81836,725 c 3.47699,-6.41665 6.43905,-11.65939 6.58398,-11.65039 0.14493,0.009 4.06815,1.21077 8.7168,2.66797 10.11158,3.16964 24.91667,3.44282 37.86328,0.69922 12.20842,-2.58718 42.57689,-12.8412 54.92188,-18.54492 C 439.45742,695.60617 444,693.96087 444,694.51562 Z m 25.83594,3.35547 c 1.11717,-0.0665 0.95638,2.06596 0.25976,10.31641 -2.00604,23.75925 -7.42548,41.17113 -14.92382,47.95117 -5.58597,5.05086 -7.62709,5.35576 -14.06055,2.10938 -4.26232,-2.15081 -5.88273,-3.81673 -6.17774,-6.35352 -0.55018,-4.73099 4.14344,-16.72413 10.21094,-26.08984 6.41873,-9.90787 19.50084,-25.34179 23.12109,-27.2793 0.68385,-0.36598 1.19793,-0.63212 1.57032,-0.6543 z M 187.52539,934.86133 c 2.69732,-0.0948 6.1339,-0.0644 9.6582,0.11328 19.0397,0.96012 30.52231,5.47504 90.4961,35.58789 29.1424,14.63241 58.087,28.7975 64.32031,31.4785 41.03085,17.6481 72.73319,24.308 108.66602,22.8242 38.70791,-1.5986 70.74238,-10.0882 149.33398,-39.57614 73.54497,-27.59435 104.20782,-36.02383 142.9375,-39.29687 l 10.93555,-0.92578 6.27148,5.92578 c 6.07528,5.74009 6.89565,9.00781 2.26367,9.00781 -28.991,0 -161.15612,75.7305 -269.74218,87.375 -16.01015,1.7169 -52.56812,2.3467 -63.33204,1.0918 -2.19998,-0.2564 -9.70132,-1.1167 -16.66796,-1.9121 C 379.18641,1041.5909 345.9363,1030.9513 274,998.98438 223.92123,976.73048 206.07129,970.81646 165.66016,963.08594 L 159.98633,962 l 10.125,-12.66602 c 5.56891,-6.96665 11.05508,-13.19276 12.1914,-13.83593 0.56818,-0.32158 2.52534,-0.5419 5.22266,-0.63672 z m 38.48438,63.16406 c 3.40408,1.30703 6.8185,2.42561 10.19531,3.84961 7.58756,3.1995 26.69429,11.6588 42.46094,18.7988 50.68476,16.343 99.47871,39.1403 152.91589,44.6451 6.24945,0.5038 12.99076,0.8572 21.08411,1.1616 8.22364,3.2567 16.78495,14.7394 20.88006,34.543 2.64447,12.7884 5.1362,33.4987 -12.8371,57.0195 -0.4085,0.012 -1.68639,-0.5237 -3.44726,-1.4082 -2.01141,-1.0104 -4.65321,-2.4768 -7.35352,-4.1075 -13.11791,-7.9222 -37.18507,-30.7998 -37.27343,-35.4296 4.6483,-7.7657 4.75429,-19.6477 1.19486,-29.0997 -4.17815,-12.8719 -16.04924,-16.7731 -27.97025,-19.2597 -34.0636,-7.1053 -68.83859,-15.5656 -95.07203,-20.7895 -17.49115,-3.4159 -35.42487,-3.2989 -49.61695,-15.3263 -11.30383,-10.0265 -14.56611,-23.28 -15.18798,-31.7748 -0.0687,-0.93918 -0.0168,-1.88112 0.0274,-2.82231 z m 330.67827,102.83951 c 1.04688,3.127 3.25907,5.5423 3.24751,7.057 -0.0141,1.84 -3.2991,8.1546 -7.66407,14.7343 -8.9584,13.5041 -28.75007,34.2253 -32.36132,33.8809 -18.39209,-14.4707 -22.72145,-30.3768 -25.00498,-51.9428 -1.79034,-13.5941 -1.97983,-19.0184 5.32134,-30.2662 12.12029,-13.1227 29.76072,-13.6175 46.11707,-17.6923 49.04878,-12.3767 111.45441,-36.6272 155.41652,-53.2503 0.19189,16.8459 -14.07749,23.1172 -29.94695,32.8723 -24.49462,15.057 -127.21368,28.4994 -115.12512,64.6071 z m -58.27681,-36.565 c -7.05839,2.7972 -15.26985,12.0215 -15.46592,16.2121 -1.10122,-4.4634 -9.0721,-13.2253 -14.96772,-14.6427 9.72087,-0.3113 19.86142,-0.8324 30.43364,-1.5694 z m 76.0126,58.5282 5.6289,5.627 c 3.09514,3.0952 7.32427,7.8659 9.40039,10.6015 l 3.77344,4.9746 -3.98828,3.7676 c -11.57052,10.9311 -31.34801,19.9011 -45.55469,20.6582 l -7.16015,0.3789 10.32617,-10.4121 c 9.2254,-9.3018 20.25947,-23.2169 25.64648,-32.3379 z m 31.31836,34.1446 6.14453,5.5839 c 7.72986,7.0253 11.67111,13.8093 12.02734,20.6954 0.90049,17.4073 -31.5309,26.2718 -59.05859,16.1425 -11.05213,-4.0667 -18.72633,-8.8667 -18.14063,-11.3476 0.0233,-0.1 0.1045,-0.2069 0.23828,-0.3223 0.9367,-0.808 4.4329,-1.9639 8.45118,-2.748 16.51155,-3.2221 28.16986,-8.9792 41.68945,-20.5821 z"
       sodipodi:nodetypes="ssssssssscssssssssssssssssssssssscccssssscssssssscccsssccsssssssscsssssscsssssccccccsssssssssssssssccsssssssssssssssccscccsssssssssscscccsssssssssssssssssssssssssssssssssssssssssssssssssssssssssssssssscccssssssssssssssscsssssscccsssssssssssssscccscssscccsssssssssssssssssssssssssssssssssssssscsssssccsssccsssssssccssssssssssssssssssssssssssssssssssssssssssssssssssssssscccssssssssssssssssssscsssssssssssscsssssscscssccsssscsccssscscscccsccccsssscccscccccscssccccscccccccsscssccsscc" />
    <path
       style="fill:#e06f98"
       d="m 433.31161,1187.5644 c -1.58137,-0.94 -3.4558,-1.2212 -5.20551,-1.7254 -4.79544,-1.1791 -9.70385,-1.9339 -14.37665,-3.5788 -9.71751,-3.1881 -18.49769,-8.5858 -26.9609,-14.222 -2.3832,-1.5615 -4.76792,-3.1208 -7.15005,-4.6839 -5.13254,2.04 -10.33018,3.9218 -15.40804,6.0956 -2.27748,0.9898 -4.55138,2.3879 -5.69948,4.6828 -1.42868,2.5754 -2.21941,5.4768 -2.32288,8.4191 -0.24752,3.3517 0.55469,6.7266 2.15615,9.6706 3.00071,5.626 8.52262,9.4663 14.36817,11.7065 8.73799,3.3207 18.35122,3.732 27.53865,2.4418 10.01692,-1.4324 19.70294,-5.0405 28.27789,-10.4007 1.97747,-1.3158 4.09987,-2.6412 5.3931,-4.6905 0.7393,-1.1823 0.588,-2.8905 -0.61045,-3.7151 z"
       id="path61" />
    <path
       style="fill:#f9f9f9;stroke:none;stroke-width:1.99937;stroke-linecap:round;stroke-linejoin:round;stroke-opacity:0.12549"
       d="m 441.08807,1168.582 c -0.25246,-0.2242 -0.72627,-0.4993 -1.45015,-0.8286 -5.24594,-2.387 -28.86353,-22.4267 -33.80303,-28.682 l -5.10852,-6.4676 -5.9455,5.9455 c -3.76329,3.7633 -5.62381,6.6298 -5.06854,7.8086 2.58495,5.4884 21.38906,16.4134 34.75321,20.1912 9.3615,2.6463 18.39108,3.6008 16.62253,2.0329 z"
       id="path108" />
    <g
       id="g111"
       transform="rotate(-45,589.47905,1162.1883)">
      <path
         style="fill:#e06f98"
         d="m 541.73242,1148.6758 c -1.55433,0.066 -2.49772,1.6433 -2.54492,3.0722 -0.13303,3.2744 0.76914,6.481 1.60956,9.6147 2.04431,7.2187 5.13217,14.1577 9.34563,20.3766 6.02754,8.9407 14.09894,16.7174 23.88661,21.4033 5.07602,2.3621 10.58449,4.3444 16.26758,4.0234 3.9573,-0.2095 7.83345,-2.0465 10.31357,-5.1704 3.31912,-4.1074 4.52639,-9.4525 5.0775,-14.5926 0.51764,-5.2403 0.24068,-10.5146 0.31205,-15.771 v -2.4211 c -5.06627,-0.4417 -10.15804,-0.8011 -15.16993,-1.3056 -3.06258,-0.3343 -6.26283,-0.8585 -9.17968,-1.4678 -11.74513,-2.4551 -23.01402,-7.2447 -32.8537,-14.1144 -2.01038,-1.2854 -3.97975,-2.714 -6.22211,-3.5681 -0.27609,-0.052 -0.56045,-0.136 -0.84216,-0.079 z"
         id="path60"
         sodipodi:nodetypes="scccccccccccccss" />
      <path
         style="opacity:1;fill:#f9f9f9;stroke:none;stroke-width:1.99937;stroke-linecap:round;stroke-linejoin:round;stroke-opacity:0.12549"
         d="m 603.69531,1125.4473 c -0.44657,0.034 -0.99196,0.1623 -1.66015,0.33 -8.74075,2.1938 -26.04881,4.0118 -38.95899,4.0918 l -13.94922,0.086 4.65039,3.9609 c 6.77589,5.7721 22.1884,12.7767 33.52344,15.2363 18.10371,3.9282 18.336,3.7475 18.375,-14.4394 0.0167,-7.7913 -0.0453,-9.4119 -1.98047,-9.2656 z"
         id="path107"
         sodipodi:nodetypes="sscccsss" />
    </g>
    <path
       style="opacity:1;fill:#f9f9f9;stroke:none;stroke-width:1.99937;stroke-linecap:round;stroke-linejoin:round;stroke-opacity:0.12549"
       d="m 183.63867,932.95898 c -0.55859,0.23763 -1.11719,0.47526 -1.67578,0.7129 -5.68652,6.89412 -11.55244,13.64391 -17.0332,20.70507 -1.33679,1.82765 -2.86423,3.56116 -3.84961,5.61328 -0.22988,0.6922 -0.21707,1.57444 0.41015,2.05469 0.58362,0.99485 1.83487,1.02041 2.81641,1.36719 8.56459,2.27376 17.29743,3.97052 25.85547,6.09961 9.72472,2.40836 19.4729,5.34136 29.0293,8.6289 15.58733,5.35808 30.92516,11.72813 46.05468,18.36133 22.95853,9.99025 45.97449,19.88225 69.41602,28.69535 19.18438,7.2066 38.76178,13.5003 58.83789,17.707 11.26042,2.38 22.63239,4.2191 34.05078,5.6504 13.45204,1.4685 27.01026,1.429 40.52344,1.2305 20.02624,-0.3575 40.10126,-1.4247 59.87305,-4.7871 28.30777,-4.724 55.64516,-13.8171 82.55078,-23.5938 23.1416,-8.4399 46.01062,-17.5986 68.91015,-26.66797 21.53805,-8.46723 43.06453,-16.77065 64.84571,-24.52539 8.35074,-2.91902 16.69513,-5.89517 25.23828,-8.21094 2.16057,-0.59944 4.37342,-1.09746 6.50195,-1.75977 0.36748,-0.44651 1.20442,-0.66183 1.21484,-1.28515 -0.009,-0.67553 0.22451,-1.42061 -0.3457,-1.93555 -4.23255,-4.28259 -8.5154,-8.5226 -12.76758,-12.78906 -0.83354,-0.25899 -1.64134,-0.75269 -2.53515,-0.4707 -12.29989,1.43856 -24.64519,2.60893 -36.83203,4.86328 -23.24325,4.16668 -45.80669,11.33537 -68.13282,18.89648 -27.78603,9.44569 -55.18541,19.92856 -82.86132,29.66992 -12.72113,4.47485 -25.46088,8.84755 -38.36719,12.82035 -3.93919,1.1983 -8.03444,2.4143 -12.0625,3.5215 -4.47044,1.2342 -9.13894,2.4333 -13.73828,3.4785 -2.06078,0.4707 -3.94946,0.8693 -6.02539,1.2929 -10.43796,2.1176 -21.03578,3.3875 -31.66407,4.0215 -4.01123,0.2388 -8.27036,0.4224 -12.30859,0.541 -8.58623,0.2635 -17.1868,0.2436 -25.76367,-0.2714 -1.40732,-0.099 -3.05299,-0.2017 -4.54883,-0.334 -3.9409,-0.3196 -8.07368,-0.798 -12.07227,-1.3907 -16.206,-2.3836 -31.95732,-7.1699 -47.26171,-12.9179 -8.51746,-3.4987 -16.87645,-7.4252 -25.2129,-11.27347 -19.27861,-8.95868 -38.44167,-18.26774 -57.55273,-27.61718 -17.79844,-8.62633 -35.63997,-17.16919 -53.68945,-25.25977 -4.10581,-1.7836 -8.17208,-3.69412 -12.41992,-5.12109 -7.17332,-2.23364 -14.57676,-3.72134 -22.03711,-4.58399 -5.11568,-0.47523 -10.24825,-0.74602 -15.3711,-1.13672 z"
       id="path106" />
    <path
       style="opacity:1;fill:#f9f9f9;stroke:none;stroke-width:1.99937;stroke-linecap:round;stroke-linejoin:round;stroke-opacity:0.12549"
       d="m 361.55273,658.05078 c -2.40331,0.0766 -4.07003,2.11496 -5.19921,4.01953 -2.58773,4.35904 -4.58275,9.03439 -6.76172,13.60352 -2.17615,4.79364 -4.51522,9.53645 -6.17774,14.54101 -0.70008,2.26313 -1.32762,4.99506 0.16211,7.08789 1.45055,1.92441 3.931,2.54625 6.12695,3.20508 6.52191,1.63807 13.34819,1.29833 19.9668,0.50586 12.35406,-1.6159 24.3685,-5.19444 36.01563,-9.54101 10.14994,-3.83202 20.0388,-8.35403 29.60742,-13.46485 1.44991,-0.87385 3.32736,-1.81607 3.56641,-3.6875 0.17507,-1.56153 -1.22165,-2.71742 -2.60157,-3.08203 -3.3274,-0.93457 -6.7998,-1.15899 -10.21679,-1.58594 -4.51567,-0.44199 -9.01559,-1.03214 -13.48243,-1.83203 -12.35863,-2.11492 -24.62993,-4.48269 -36.89648,-6.96679 -4.35806,-0.86659 -8.69169,-1.85585 -13.04297,-2.75 -0.35338,-0.0475 -0.70996,-0.0696 -1.06641,-0.0527 z"
       id="path105" />
    <path
       style="opacity:1;fill:#f9f9f9;stroke:none;stroke-width:1.99937;stroke-linecap:round;stroke-linejoin:round;stroke-opacity:0.12549"
       d="m 601.73633,646.9043 c -2.98227,0.49513 -5.85826,1.48427 -8.76367,2.30078 -8.10223,2.44761 -16.11061,5.16304 -24.25782,7.47265 -12.64688,3.64138 -25.37005,7.05278 -38.24609,9.79102 -3.63178,0.79463 -7.30928,1.3362 -10.99023,1.83984 -1.43666,0.28477 -3.26878,0.38584 -4.06055,1.82032 -0.68245,1.19904 0.011,2.68353 1.12695,3.33789 4.14016,2.68331 8.91791,4.13278 13.59961,5.55859 7.76617,2.2386 15.68332,3.95356 23.66016,5.24609 6.80086,0.97226 13.65376,1.69357 20.52734,1.80079 9.23521,-0.0493 18.46118,-0.72005 27.63672,-1.74415 2.80474,-0.38484 5.66687,-0.61417 8.375,-1.48046 1.23759,-0.36317 1.98007,-1.69239 1.72852,-2.94336 -0.59822,-4.40827 -1.73452,-8.72245 -2.74024,-13.05078 -1.45421,-5.82598 -2.87177,-11.67468 -4.77734,-17.37305 -0.31253,-0.90546 -0.67932,-1.8762 -1.58789,-2.33789 -0.33933,-0.21895 -0.83161,-0.25898 -1.23047,-0.23828 z"
       id="path9" />
    <path
       id="path114"
       style="opacity:1;fill:#f5d3d6;fill-opacity:1;stroke:none;stroke-width:1.99937;stroke-linecap:round;stroke-linejoin:round;stroke-opacity:0.12549"
       d="m 227.0957,998.52148 c -1.43755,0.1646 -2.2499,1.63062 -2.27148,2.97072 -0.0647,3.0873 0.9991,6.0564 1.94922,8.9516 1.94721,5.3673 4.33841,10.6218 7.56698,15.3476 4.29805,6.2438 10.65646,10.8053 17.53428,13.8373 8.14288,3.6486 16.93008,5.4927 25.6659,7.0827 22.76944,4.4371 45.39635,9.3634 68.02654,14.4237 14.27247,3.2162 28.55193,6.4791 42.74562,10.0171 3.93338,1.0208 7.84989,1.9366 11.71867,3.2427 4.0373,1.8202 8.04164,4.3854 10.1607,8.4143 2.35781,4.472 2.78636,9.6287 3.08546,14.5895 0.26153,6.5257 -2.00679,16.4814 -1.95322,23.0104 7.07349,6.8529 14.33177,13.2547 21.57455,19.9559 6.26601,5.4093 12.6097,10.89 20.00542,14.717 1.99103,0.958 4.02124,2.1205 6.27767,2.2153 1.95109,-0.1192 3.2647,-1.8097 4.47056,-3.1552 4.16421,-5.1906 7.3129,-11.2048 9.14858,-17.6051 3.01193,-10.52 3.36416,-21.6868 1.86178,-32.4875 -1.36045,-9.3025 -4.1233,-18.5622 -9.25273,-26.5124 -1.95088,-2.9629 -4.28053,-5.6729 -6.81447,-8.1496 -2.41819,-2.3528 -5.76329,-3.3487 -9.02387,-3.8198 -6.90252,-0.9977 -13.88037,-1.3145 -20.80801,-2.0947 -12.57373,-1.2937 -25.04442,-3.5298 -37.2977,-6.6286 -12.07395,-3.026 -24.00943,-6.588 -35.80695,-10.5545 -21.92137,-7.3283 -43.6434,-15.1398 -65.28075,-23.2166 -9.78881,-3.6713 -19.55755,-7.3989 -29.25732,-11.2999 -5.72404,-2.2707 -11.44179,-4.8089 -17.13742,-7.2441 -4.91413,-2.0349 -9.81425,-4.1473 -14.90372,-5.71163 -0.64663,-0.16817 -1.30889,-0.35905 -1.98425,-0.29619 z"
       sodipodi:nodetypes="scccccccccccccccccccccccccccss" />
    <path
       id="path115"
       style="opacity:1;fill:#f5d3d6;fill-opacity:1;stroke:none;stroke-width:1.99937;stroke-linecap:round;stroke-linejoin:round;stroke-opacity:0.12549"
       d="m 700.09766,1004.1035 c -2.75368,0.5265 -5.38945,1.54 -8.05459,2.3927 -18.47501,6.2412 -36.62204,13.3977 -54.99683,19.9207 -19.71222,7.0692 -39.61793,13.8526 -59.66145,20.0352 -13.72804,4.2192 -27.62677,8.1596 -41.65108,11.3987 -8.46651,2.1139 -16.99002,4.3359 -24.89142,8.1179 -5.49299,2.6424 -10.72368,6.4099 -13.74001,11.8332 -3.25016,5.7335 -3.8116,12.5107 -3.62012,18.9735 0.27098,6.7733 1.12412,13.5228 2.43569,20.1717 2.04653,10.1836 5.67919,20.2737 12.1411,28.5223 3.14111,4.0822 7.05161,7.4678 10.65068,11.1274 0.43995,0.5431 0.99044,0.9119 1.67451,1.0699 0.58906,0.4341 1.14424,-0.04 1.70853,-0.2702 1.33397,-1.1158 2.51872,-2.449 3.79511,-3.6487 4.5162,-4.4743 9.17405,-8.821 13.30416,-13.6651 5.47915,-6.2836 10.63311,-12.8637 15.18202,-19.8559 2.15855,-3.209 4.3171,-6.4181 6.47565,-9.6272 0.048,-0.8564 0.42781,-1.7497 -0.0482,-2.5477 -1.29146,-3.7298 -2.76465,-7.3478 -3.8723,-11.1251 -0.55878,-1.7922 -0.54647,-3.7539 0.21486,-5.487 1.21179,-3.1912 2.84218,-6.2683 5.21543,-8.7543 0.9291,-1.0225 1.98229,-2.0064 2.95047,-2.8358 5.56401,-4.6882 12.09641,-8.0406 18.66165,-11.0883 6.41998,-2.9293 13.10499,-5.5045 19.68281,-7.8708 9.70289,-3.4707 19.62096,-6.6078 29.50315,-9.6208 9.79049,-3.044 19.63128,-5.9945 29.14643,-9.8367 7.11288,-2.8484 13.81191,-6.629 20.18376,-10.8653 5.55739,-3.6441 11.12352,-7.5322 15.30533,-12.7709 2.09908,-2.675 3.40183,-5.8742 4.42184,-9.0899 0.34652,-1.2176 0.76431,-2.7676 -0.15526,-3.8252 -0.61569,-0.4099 -1.16157,-0.9322 -1.96189,-0.7783 z" />
    <circle
       style="opacity:0.5;fill:#000000;fill-rule:evenodd"
       id="path1-4"
       cx="302.61221"
       cy="454.31668"
       r="19.612198" />
    <circle
       style="opacity:0.5;fill:#000000;fill-rule:evenodd"
       id="circle1"
       cx="627.3537"
       cy="450.84351"
       r="19.612198" />
  </g>
</svg>
