<?xml version="1.0" encoding="UTF-8" standalone="no"?>
<!-- Created with Inkscape (http://www.inkscape.org/) -->

<svg
   width="10mm"
   height="20mm"
   viewBox="0 0 10 20"
   version="1.1"
   id="svg1"
   inkscape:version="1.3 (0e150ed, 2023-07-21)"
   sodipodi:docname="note_full.svg"
   xmlns:inkscape="http://www.inkscape.org/namespaces/inkscape"
   xmlns:sodipodi="http://sodipodi.sourceforge.net/DTD/sodipodi-0.dtd"
   xmlns="http://www.w3.org/2000/svg"
   xmlns:svg="http://www.w3.org/2000/svg">
  <sodipodi:namedview
     id="namedview1"
     pagecolor="#ffffff"
     bordercolor="#666666"
     borderopacity="1.0"
     inkscape:showpageshadow="2"
     inkscape:pageopacity="0.0"
     inkscape:pagecheckerboard="0"
     inkscape:deskcolor="#d1d1d1"
     inkscape:document-units="mm"
     inkscape:zoom="5.3239955"
     inkscape:cx="25.075153"
     inkscape:cy="53.061653"
     inkscape:window-width="1264"
     inkscape:window-height="759"
     inkscape:window-x="0"
     inkscape:window-y="25"
     inkscape:window-maximized="0"
     inkscape:current-layer="layer1" />
  <defs
     id="defs1" />
  <g
     inkscape:label="Layer 1"
     inkscape:groupmode="layer"
     id="layer1"
     transform="translate(-129.64583,-79.110424)">
    <path
       id="path1"
       style="font-weight:bold;font-size:23.7707px;line-height:1.05;font-family:Pointilised;-inkscape-font-specification:'Pointilised Bold';text-align:center;text-anchor:middle;fill:#ffb380;stroke-width:0.21917;stroke:#660080;stroke-opacity:1"
       d="m 135.03035,91.397398 c -0.12849,-0.01886 -0.25349,-0.02829 -0.37501,-0.02829 -0.76844,0 -1.3902,0.237062 -1.865,0.710551 -0.47481,0.466913 -0.7121,1.045309 -0.7121,1.735812 0,0.657624 0.19656,1.190618 0.59014,1.598352 0.39982,0.401149 0.94012,0.601513 1.62109,0.601513 0.57476,0 1.10589,-0.131246 1.59319,-0.394291 0.48729,-0.269622 0.83103,-0.624956 1.03094,-1.065568 0.64018,-1.432237 -0.27346,-2.358923 -0.49098,-2.552288 -0.45876,-0.407801 -1.03726,-0.553696 -1.39227,-0.60579 z m -0.56724,1.008855 c 0.0545,-3.55e-4 0.10977,0.0038 0.16588,0.01189 0.55258,-0.02646 1.10865,0.315947 1.32033,0.829923 0.45154,1.279918 -1.35856,2.119509 -2.34973,1.536857 -0.99662,-0.676413 -0.24544,-2.371444 0.86352,-2.378666 z"
       sodipodi:nodetypes="sscscsccssscccss" />
  </g>
</svg>
